User ID,User Name,First Name,Last Name,Status,Work Email,Created On,Zuora Billing Role,Zuora Payment Role,Zuora Commerce Role,Zuora Platform Role,Zuora Finance Role,Zuora Reporting Role,Zuora Insights Role,Last Login
2c92c0f8388393c50138905a80192cc8,cduke@zendesk.com,Chris,Duke,Active,cduke@zendesk.com,07/16/2012,Zuora Billing Standard User,Zuora Payments Standard User,Zuora Commerce Admin User,Administrator,N/A,Zuora Reporting Standard User,N/A,04/12/2016
2c92c0f8388393c501389be3c57a61fb,jgalang@zendesk.com,Juris,Galang,Active,jgalang@zendesk.com,07/18/2012,Zuora Billing Standard User,Zuora Payments Standard User,Zuora Commerce Admin User,Administrator,N/A,Zuora Reporting Standard User,N/A,08/21/2019
2c92c0f8392c7a3201393593375c5469,zuora.jenkins@zendesk.com,Zuora,Jenkins,Pending Activation,zuora.jenkins@zendesk.com,08/17/2012,Zuora Billing Standard User,Zuora Payments Standard User,Zuora Commerce Admin User,Administrator,N/A,Zuora Reporting Standard User,N/A,N/A
2c92c0f83947960201394a2011723018,qaapi@zendesk.com,QA,Api,Deactivated,billingdev+zuora@zendesk.com,08/21/2012,Zuora Billing Standard User,Zuora Payments Standard User,Zuora Commerce Admin User,Administrator,N/A,Zuora Reporting Standard User,N/A,N/A
2c92c0f83cf64298013d180ecbc3290a,tpelliccioni@zendesk.com,Thomas,Pelliccioni,Active,tpelliccioni@zendesk.com,02/26/2013,Zuora Billing Standard User,Zuora Payments Standard User,Zuora Commerce Admin User,Administrator,N/A,Zuora Reporting Standard User,N/A,N/A
2c92c0f83d60e055013da2d493b93b0e,acceptanceapi@zendesk.com,Acceptance,API,Active,billingdev@zendesk.com,03/25/2013,Zuora Billing Standard User,Zuora Payments Standard User,Zuora Commerce Admin User,Administrator,N/A,Zuora Reporting Standard User,N/A,10/18/2018
2c92c0f83de30102013deb1ce1743328,martin.crombieZendesk@zuora.com,Martin,Crombie,Active,martin.crombie@zuora.com,04/08/2013,Zuora Billing Standard User,Zuora Payments Standard User,Zuora Commerce Admin User,Administrator,N/A,Zuora Reporting Standard User,N/A,N/A
2c92c0f83e166125013e1ec94f544680,awen@zendesk.com,Andrew,Wen,Deactivated,awen@zendesk.com,04/18/2013,Zuora Billing Standard User,Zuora Payments Standard User,Zuora Commerce Admin User,Administrator,N/A,Zuora Reporting Standard User,N/A,03/24/2015
2c92c0f83f5ad13c013f6292aac53d39,obhatt@zendesk.com,Om,Bhatt,Active,obhatt@zendesk.com,06/20/2013,Zuora Billing Standard User,Zuora Payments Standard User,Zuora Commerce Admin User,Administrator,N/A,Zuora Reporting Standard User,N/A,09/16/2019
2c92c0f842a2bfd40142ba43cde7321b,jgibson-oldtenant@zendesk.com,Jamie,Gibson,Active,jgibson@zendesk.com,12/03/2013,Zuora Billing Standard User,Zuora Payments Standard User,Zuora Commerce Admin User,Administrator,N/A,Zuora Reporting Standard User,N/A,11/02/2018
2c92c0f842c687d20142c943420f1fe1,ekao-oldtenant@zendesk.com,Lizzie,Kao,Active,ekao@zendesk.com,12/06/2013,Zuora Billing Standard User,Zuora Payments Standard User,Zuora Commerce Admin User,Administrator,N/A,Zuora Reporting Standard User,N/A,07/16/2015
2c92c0f84366ccc201436a0971d17307,chjackson@zendesk.com,"Chris ",Jackson,Active,chjackson@zendesk.com,01/06/2014,Zuora Billing Standard User,Zuora Payments Standard User,Zuora Commerce Admin User,Standard User,N/A,Zuora Reporting Standard User,N/A,N/A
2c92c0f8437abf9901438e0724c311fd,james@zendesk.com,James,Rosen,Pending Activation,james@zendesk.com,01/13/2014,Zuora Billing Standard User,Zuora Payments Standard User,Zuora Commerce Admin User,Standard User,N/A,Zuora Reporting Standard User,N/A,N/A
2c92c0f8438f5d830143914c42b7385b,mongooses@zendesk.com,Voice,Team,Pending Activation,mongooses@zendesk.com,01/14/2014,Zuora Billing Standard User,Zuora Payments Standard User,Zuora Commerce Admin User,Administrator,N/A,Zuora Reporting Standard User,N/A,N/A
2c92c0f843b88ad80143c6dad1eb0b92,jzhang@zendesk.com,Robert,Zhang,Active,jzhang@zendesk.com,01/24/2014,Zuora Billing Standard User,Zuora Payments Standard User,Zuora Commerce Admin User,Administrator,N/A,Zuora Reporting Administrator,N/A,09/18/2019
2c92c0f844097da901440d74275110b5,jvilar-oldtenant@zendesk.com,Jose,Vilar-OLDTENANT,Active,jvilar@zendesk.com,02/07/2014,Zuora Billing Standard User,Zuora Payments Standard User,Zuora Commerce Admin User,Administrator,N/A,Zuora Reporting Standard User,N/A,02/12/2014
2c92c0f8444c69c901446a6d34067f01,bhass@zendesk.com,Ben,Hass,Active,bhass@zendesk.com,02/25/2014,Zuora Billing Standard User,Zuora Payments Standard User,Zuora Commerce Admin User,Standard User,N/A,Zuora Reporting Standard User,N/A,12/05/2017
2c92c0f8444c69d001446a6caae45e81,jdmanuel@zendesk.com,Joseph,Manuel,Active,jdmanuel@zendesk.com,02/25/2014,Zuora Billing Standard User,Zuora Payments Standard User,Zuora Commerce Standard User,Administrator,N/A,Zuora Reporting Standard User,N/A,09/19/2019
2c92c0f84495ff3f0144b26159412b8e,slivathinos@zendesk.com,Spyros,Livathinos,Active,slivathinos@zendesk.com,03/11/2014,Zuora Billing Standard User,Zuora Payments Standard User,Zuora Commerce Admin User,Standard User,N/A,Zuora Reporting Standard User,N/A,N/A
2c92c0f844dde4b40144e0cd051f6ea8,mick@zendesk.com,Mick,Staugaard,Active,mick@zendesk.com,03/20/2014,Zuora Billing Standard User,Zuora Payments Standard User,Zuora Commerce Admin User,Standard User,N/A,Zuora Reporting Standard User,N/A,N/A
2c92c0f847f1dcf301480e79cf856c9d,vmani@zendesk.com,V,Mani,Active,vmani@zendesk.com,08/25/2014,Zuora Billing Standard User,Zuora Payments Standard User,Zuora Commerce Standard User,Standard User,N/A,Zuora Reporting Standard User,N/A,N/A
2c92c0f84b786da2014b7f5feea64b62,ehuang@zendesk.com,Eric,Huang,Deactivated,ehuang@zendesk.com,02/12/2015,Zuora Billing Standard User,Zuora Payments Standard User,Zuora Commerce Standard User,Administrator,N/A,Zuora Reporting Standard User,N/A,06/28/2017
2c92c0f84bbfeca5014bc20f2c4b1068,swei@zendesk.com,Stephanie,Wei,Active,swei@zendesk.com,02/25/2015,Zuora Billing Standard User,Zuora Payments Standard User,Zuora Commerce Standard User,Administrator,N/A,Zuora Reporting Standard User,N/A,07/16/2018
2c92c0f84c2b9e2a014c4ee992d275de,hsiojo@zendesk.com,Herbert,Siojo,Active,hsiojo@zendesk.com,03/24/2015,Zuora Billing Standard User,Zuora Payments Standard User,Zuora Commerce Standard User,Standard User,N/A,Zuora Reporting Standard User,N/A,01/04/2017
2c92c0f84c5100b6014c52eabafb5226,jducarroz@zendesk.com,Jean-Francois,Ducarroz,Active,jducarroz@zendesk.com,03/25/2015,Zuora Billing Standard User,Zuora Payments Standard User,Zuora Commerce Standard User,Administrator,N/A,Zuora Reporting Standard User,N/A,12/13/2016
2c92c0f84cdf9966014cec19183f01fe,msmedberg@zendesk.com,Michael,Smedberg,Active,msmedberg@zendesk.com,04/24/2015,Zuora Billing Standard User,Zuora Payments Standard User,Zuora Commerce Standard User,Administrator,N/A,Zuora Reporting Standard User,N/A,N/A
2c92c0f84d658e8e014d7d4d155b0950,lkrystkowiak@zendesk.com,Lukasz,Krystkowiak,Active,lkrystkowiak@zendesk.com,05/22/2015,Zuora Billing Standard User,Zuora Payments Standard User,Zuora Commerce Standard User,Administrator,N/A,Zuora Reporting Standard User,N/A,03/21/2018
2c92c0f84eb41ec2014ebc779e766242,cpovey@zendesk.com,Craig,Povey,Active,cpovey@zendesk.com,07/23/2015,Zuora Billing Standard User,Zuora Payments Standard User,Zuora Commerce Standard User,Administrator,N/A,Zuora Reporting Standard User,N/A,09/17/2019
2c92c0f8516cc1a501517efc3ffe5d06,ssherly@zendesk.com,Sherly,Sherly,Active,ssherly@zendesk.com,12/07/2015,Zuora Billing Standard User,Zuora Payments Standard User,Zuora Commerce Standard User,Administrator,N/A,Zuora Reporting Standard User,N/A,03/07/2017
2c92c0f85313111501531f1b25322ca5,minh@zendesk.com,Minh,Nguyen,Active,minh@zendesk.com,02/26/2016,Zuora Billing Standard User,Zuora Payments Standard User,Zuora Commerce Standard User,Administrator,N/A,Zuora Reporting Standard User,N/A,N/A
2c92c0f8550f938f01551728d4d1587c,lsmith-oldtenant@zendesk.com,Lyda,Smith,Active,lsmith@zendesk.com,06/03/2016,Zuora Billing Standard User,Zuora Payments Standard User,Zuora Commerce Standard User,Administrator,N/A,Zuora Reporting Standard User,N/A,08/24/2016
2c92c0f8555ce63a01555ed3c2cb7220,kcavanaugh-oldtenant@zendesk.com,Katherine,Cavanaugh,Active,kcavanaugh@zendesk.com,06/17/2016,Zuora Billing Standard User,Zuora Payments Standard User,Zuora Commerce Admin User,Administrator,N/A,Zuora Reporting Standard User,N/A,09/20/2019
2c92c0f85615d706015622e1f8261005,jallen-oldtenant@zendesk.com,Justin,Allen,Active,jallen@zendesk.com,07/25/2016,Zuora Billing Standard User,Zuora Payments Standard User,Zuora Commerce Admin User,Administrator,N/A,Zuora Reporting Standard User,N/A,N/A
2c92c0f8570837a201570f15be881bdd,drosic@zendesk.com,Dino,Rosic,Active,drosic@zendesk.com,09/09/2016,Zuora Billing Standard User,Zuora Payments Standard User,Zuora Commerce Standard User,Standard User,N/A,Zuora Reporting Standard User,N/A,06/13/2017
2c92c0f8578d65ef0157924042d139bf,dnelson@zendesk.com,Damian,Nelson,Active,dnelson@zendesk.com,10/04/2016,Zuora Billing Standard User,Zuora Payments Standard User,Zuora Commerce Standard User,Administrator,N/A,Zuora Reporting Standard User,N/A,N/A
2c92c0f8592a62cd01594262d66c686a,atsoy@zendesk.com,Anna,Tsoy,Active,atsoy@zendesk.com,12/27/2016,Zuora Billing Standard User,Zuora Payments Standard User,Zuora Commerce Admin User,Administrator,N/A,Zuora Reporting Administrator,N/A,11/08/2018
2c92c0f85b8fa30e015b98de103c5dc9,jgalang-zuora-api@zendesk.com,Juris,Galang,Deactivated,jgalang+zuora-api@zendesk.com,04/22/2017,Zuora Billing Standard User,Zuora Payments Standard User,Zuora Commerce Standard User,API User,N/A,Zuora Reporting Standard User,N/A,04/22/2017
2c92c0f85b8fa370015b98df20b82a9a,mpham+zuora-api@zendesk.com,Mickaël,Pham,Pending Activation,mpham+zuora-api@zendesk.com,04/22/2017,Zuora Billing Standard User,Zuora Payments Standard User,Zuora Commerce Standard User,API User,N/A,Zuora Reporting Standard User,N/A,N/A
2c92c0f85e1d50df015e392282e90582,mturan@zendesk.com,Mustafa,Turan,Active,mturan@zendesk.com,08/31/2017,Zuora Billing Admin User,Zuora Payments Standard User,Zuora Commerce Admin User,Administrator,N/A,Zuora Reporting Administrator,N/A,09/16/2019
2c92c0f85e5aff2e015e5d857331602c,dlugo@zendesk.com,Diego,Lugo,Active,dlugo@zendesk.com,09/07/2017,Zuora Billing Standard User,Zuora Payments Standard User,Zuora Commerce Standard User,Administrator,N/A,Zuora Reporting Standard User,N/A,09/19/2019
2c92c0f85e9db255015ec505119e6ae3,akannapally@zendesk.com,Anuraag,Kannapally,Active,akannapally@zendesk.com,09/27/2017,Zuora Billing Standard User,Zuora Payments Standard User,Zuora Commerce Standard User,Administrator,N/A,Zuora Reporting Standard User,N/A,09/19/2019
2c92c0f85f84b715015f9d7514f46fa1,jshay@zendesk.com,Jared,Shay,Active,jshay@zendesk.com,11/08/2017,Zuora Billing Standard User,Zuora Payments Standard User,Zuora Commerce Standard User,Administrator,N/A,Zuora Reporting Standard User,N/A,11/20/2017
2c92c0f85f9f7fe4015fa1943c50426b,ghauge@zendesk.com,Gard,Hauge,Active,ghauge@zendesk.com,11/09/2017,Zuora Billing Standard User,Zuora Payments Standard User,Zuora Commerce Standard User,Administrator,N/A,Zuora Reporting Standard User,N/A,10/09/2018
2c92c0f861789e700161b9975c49036b,jguyonnet@zendesk.com,Jill,Guyonnet,Active,jguyonnet@zendesk.com,02/21/2018,Zuora Billing Admin User,Zuora Payments Standard User,Zuora Commerce Admin User,Administrator,N/A,Zuora Reporting Administrator,N/A,08/01/2019
2c92c0f86246fe7001624964e47f3dab,fmenezes@zendesk.com,Filipe Constantinov,Menezes,Active,fmenezes@zendesk.com,03/21/2018,Zuora Billing Admin User,Zuora Payments Standard User,Zuora Commerce Admin User,Administrator,N/A,Zuora Reporting Administrator,N/A,03/21/2018
2c92c0f862f921930162f96a71cb6ad5,ssidorchik@zendesk.com,Sergey,Sidorchik,Active,ssidorchik@zendesk.com,04/24/2018,Zuora Billing Admin User,Zuora Payments Standard User,Zuora Commerce Admin User,Administrator,N/A,Zuora Reporting Administrator,N/A,09/20/2019
2c92c0f86367c9ae01636f8fcf8b07cb,daydin@zendesk.com,Lara,Aydin,Active,daydin@zendesk.com,05/17/2018,Zuora Billing Standard User,Zuora Payments Standard User,Zuora Commerce Standard User,Administrator,N/A,Zuora Reporting Standard User,N/A,08/05/2019
2c92c0f86371efdc016375301a77646a,cthilgen+zuora-api@zendesk.com,Chris,Thilgen,Active,cthilgen+zuora-api@zendesk.com,05/18/2018,Zuora Billing Admin User,Zuora Payments Standard User,Zuora Commerce Admin User,API User,N/A,Zuora Reporting Administrator,N/A,05/18/2018
2c92c0f8658a405d01658c466f3803e7,bkranjac@zendesk.com,Branka,Kranjac,Active,bkranjac@zendesk.com,08/30/2018,Zuora Billing Standard User,Zuora Payments Standard User,Zuora Commerce Standard User,Administrator,N/A,Zuora Reporting Standard User,N/A,09/19/2018
2c92c0f866c89fe30166f480c82f236d,kmcguinness@zendesk.com,Kevin,McGuinness,Active,kmcguinness@zendesk.com,11/08/2018,Zuora Billing Admin User,Zuora Payments Standard User,Zuora Commerce Admin User,Administrator,N/A,Zuora Reporting Administrator,N/A,11/16/2018
2c92c0f868ddff450168e01477f56fc9,skurusamy@zendesk.com,Suthagaran,Kurusamy,Active,skurusamy@zendesk.com,02/11/2019,Zuora Billing Standard User,Zuora Payments Standard User,Zuora Commerce Standard User,Standard User,N/A,Zuora Reporting Standard User,N/A,06/20/2019
2c92c0f86b78f56e016b7b519810276b,yuchen@zendesk.com,Kevin,Chen,Active,yuchen@zendesk.com,06/21/2019,Zuora Billing Admin User,Zuora Payments Standard User,Zuora Commerce Standard User,Administrator,N/A,Zuora Reporting Standard User,N/A,09/19/2019
2c92c0f86b93aa8c016b9560deae7e13,bsomaoang@zendesk.com,Blaec,Somaoang,Active,bsomaoang@zendesk.com,06/26/2019,Zuora Billing Standard User,Zuora Payments Standard User,Zuora Commerce Standard User,Standard User,N/A,Zuora Reporting Standard User,N/A,08/30/2019
2c92c0f86c2d46c8016c3ed9f96a25cf,sthornton@zendesk.com,Sarah,Thornton,Active,sthornton@zendesk.com,07/29/2019,Zuora Billing Admin User,Zuora Payments Standard User,Zuora Commerce Admin User,API User,N/A,Zuora Reporting Administrator,N/A,08/20/2019
2c92c0f86c2d46d2016c2f2f22e0278a,jmoll@zendesk.com,Jeff,Moll,Active,jmoll@zendesk.com,07/26/2019,Zuora Billing Admin User,Zuora Payments Standard User,Zuora Commerce Admin User,Administrator,N/A,Zuora Reporting Administrator,N/A,09/20/2019
2c92c0f86c6b80b0016c72e747f47f38,shilpa@zendesk.com,Shilpa,Hamanawhat,Active,shanumanthappa@zendesk.com,08/08/2019,Zuora Billing Standard User,Zuora Payments Standard User,Zuora Commerce Standard User,Standard User,N/A,Zuora Reporting Standard User,N/A,08/12/2019
2c92c0f86c9489ac016c980cc61d5883,jbarraza@zendesk.com,Javier,Barraza,Active,jbarraza@zendesk.com,08/15/2019,Zuora Billing Standard User,Zuora Payments Standard User,Zuora Commerce Standard User,Standard User,N/A,Zuora Reporting Standard User,N/A,08/16/2019
2c92c0f86c99b4eb016c9ae6564e3ee3,camico@zendesk.com,Cristina,Amico,Active,camico@zendesk.com,08/16/2019,Zuora Billing Admin User,Zuora Payments Standard User,Zuora Commerce Admin User,Standard User,N/A,Zuora Reporting Administrator,N/A,08/16/2019
2c92c0f86c99b4eb016cab4a9cff5b90,choward@zendesk.com,Conor,Howard,Active,choward@zendesk.com,08/19/2019,Zuora Billing Admin User,Zuora Payments Standard User,Zuora Commerce Admin User,Standard User,N/A,Zuora Reporting Administrator,N/A,08/28/2019
2c92c0f86d4247ee016d464c3863037d,whenshaw@zendesk.com,William,Henshaw,Active,whenshaw@zendesk.com,09/18/2019,Zuora Billing Admin User,Zuora Payments Standard User,Zuora Commerce Admin User,Administrator,N/A,Zuora Reporting Administrator,N/A,09/19/2019
2c92c0f86d4247f1016d464b70451a3a,bweiss@zendesk.com,Brett,Weiss,Active,bweiss@zendesk.com,09/18/2019,Zuora Billing Admin User,Zuora Payments Standard User,Zuora Commerce Admin User,Administrator,N/A,Zuora Reporting Administrator,N/A,09/19/2019
2c92c0f9392c807901393592e41755ca,zuora.qa@zendesk.com,Zuora,QA,Pending Activation,zuora.qa@zendesk.com,08/17/2012,Zuora Billing Standard User,Zuora Payments Standard User,Zuora Commerce Admin User,Administrator,N/A,Zuora Reporting Standard User,N/A,N/A
2c92c0f93b6ed476013b8c6a6fdb203d,nathan@zendesk.com,Nathan,Rapheld,Active,nathan@zendesk.com,12/11/2012,Zuora Billing Standard User,Zuora Payments Standard User,Zuora Commerce Admin User,Administrator,N/A,Zuora Reporting Standard User,N/A,02/21/2013
2c92c0f93c1deb6e013c4efc66672e3e,clittle@zendesk.com,Craig,Little,Active,clittle@zendesk.com,01/18/2013,Zuora Billing Standard User,Zuora Payments Standard User,Zuora Commerce Admin User,Administrator,N/A,Zuora Reporting Standard User,N/A,N/A
2c92c0f93e320b1c013e3d2715521fee,jchristiansen@zendesk.com,Jesper,Christiansen,Active,jchristiansen@zendesk.com,04/24/2013,Zuora Billing Standard User,Zuora Payments Standard User,Zuora Commerce Admin User,Administrator,N/A,Zuora Reporting Standard User,N/A,02/03/2014
2c92c0f9437ad6c801437e1556632e1f,dlee@zendesk.com,David,Lee,Active,dlee@zendesk.com,01/10/2014,Zuora Billing Standard User,Zuora Payments Standard User,Zuora Commerce Admin User,Standard User,N/A,Zuora Reporting Standard User,N/A,N/A
2c92c0f943b8988c0143c6c5f21431e0,lfriedman@zendesk.com,Lisa,Friedman,Active,lfriedman@zendesk.com,01/24/2014,Zuora Billing Standard User,Zuora Payments Standard User,Zuora Commerce Admin User,Administrator,N/A,Zuora Reporting Standard User,N/A,06/21/2018
2c92c0f94475dfde01448a14093a3daa,troy-oldtenant@zendesk.com,Troy,Witt,Active,troy@zendesk.com,03/03/2014,Zuora Billing Standard User,Zuora Payments Standard User,Zuora Commerce Admin User,Administrator,N/A,Zuora Reporting Standard User,N/A,N/A
2c92c0f94475dfde014493b4e5335064,ymnisi@zendesk.com,Yingwani,Mnisi,Active,ymnisi@zendesk.com,03/05/2014,Zuora Billing Standard User,Zuora Payments Standard User,Zuora Commerce Admin User,Standard User,N/A,Zuora Reporting Standard User,N/A,N/A
2c92c0f9475dd7a0014768f5d454326a,hasun@zendesk.com,Hao,Sun,Active,hasun@zendesk.com,07/24/2014,Zuora Billing Standard User,Zuora Payments Standard User,Zuora Commerce Standard User,Standard User,N/A,Zuora Reporting Standard User,N/A,08/02/2017
2c92c0f9483cf0bd01483d1643e81fad,support_10600@zuora.com,ZuoraSupport,10600,Active,zsso@zuora.com,09/03/2014,Zuora Billing Standard User,Zuora Payments Standard User,Zuora Commerce Admin User,Administrator,N/A,Zuora Reporting Standard User,N/A,09/18/2019
2c92c0f948bfe18b0148e7293e3008b5,mpham@zendesk.com,Mickael,Pham,Active,mpham@zendesk.com,10/06/2014,Zuora Billing Admin User,Zuora Payments Standard User,Zuora Commerce Admin User,Administrator,N/A,Zuora Reporting Standard User,N/A,09/20/2019
2c92c0f94ac8307f014af41817e1594c,jducharme@zendesk.com,Jeff,Ducharme,Active,jducharme@zendesk.com,01/16/2015,Zuora Billing Standard User,Zuora Payments Standard User,Zuora Commerce Standard User,Administrator,N/A,Zuora Reporting Standard User,N/A,N/A
2c92c0f94be36ea3014bec053c1e3255,awoo@zendesk.com,Anthony,Woo,Active,awoo@zendesk.com,03/05/2015,Zuora Billing Standard User,Zuora Payments Standard User,Zuora Commerce Standard User,Administrator,N/A,Zuora Reporting Standard User,N/A,01/12/2018
2c92c0f94c2ba844014c47a987ef6abe,rfung@zendesk.com,Ronald,Fung,Active,rfung@zendesk.com,03/23/2015,Zuora Billing Standard User,Zuora Payments Standard User,Zuora Commerce Standard User,Standard User,N/A,Zuora Reporting Standard User,N/A,06/08/2017
2c92c0f94c9e6b58014ca088a027523c,zuora-api-oldtenant@zendesk.com,Zuora,API Oldtenant,Active,ekao@zendesk.com,04/09/2015,Zuora Billing Standard User,Zuora Payments Standard User,Zuora Commerce Admin User,Administrator,N/A,Zuora Reporting Standard User,N/A,10/09/2018
2c92c0f94eb42cb2014ebd2ac97a45e0,dschild-oldtenant@zendesk.com,David,Schild,Active,dschild@zendesk.com,07/23/2015,Zuora Billing Standard User,Zuora Payments Standard User,Zuora Commerce Admin User,Administrator,N/A,Zuora Reporting Standard User,N/A,N/A
2c92c0f9501d4f1e01506d96f02b1953,jsandberg@zendesk.com,Jeffrey,Sandberg,Deactivated,jsandberg@zendesk.com,10/15/2015,Zuora Billing Standard User,Zuora Payments Standard User,Zuora Commerce Standard User,Administrator,N/A,Zuora Reporting Standard User,N/A,N/A
2c92c0f9516ccc6c01517efaa09b4e83,akumar@zendesk.com,Arnav,Kumar,Deactivated,akumar@zendesk.com,12/07/2015,Zuora Billing Standard User,Zuora Payments Standard User,Zuora Commerce Standard User,Administrator,N/A,Zuora Reporting Standard User,N/A,04/07/2017
2c92c0f9523019000152327e63723ea0,eocarroll@zendesk.com,Elaine,O'Carroll,Active,eocarroll@zendesk.com,01/11/2016,Zuora Billing Standard User,Zuora Payments Standard User,Zuora Commerce Standard User,Administrator,N/A,Zuora Reporting Standard User,N/A,04/24/2018
2c92c0f953cfa2d90153ed07f1211be9,thofer@zendesk.com,Thomas,Hofer,Active,thofer@zendesk.com,04/06/2016,Zuora Billing Standard User,Zuora Payments Standard User,Zuora Commerce Standard User,Administrator,N/A,Zuora Reporting Standard User,N/A,12/18/2017
2c92c0f954554b9b01545ee8dbf15808,cthilgen@zendesk.com,Christopher,Thilgen,Active,cthilgen@zendesk.com,04/28/2016,Zuora Billing Standard User,Zuora Payments Standard User,Zuora Commerce Admin User,Administrator,N/A,Zuora Reporting Standard User,N/A,09/13/2019
2c92c0f9550fa33a0155178b841357d4,ccui@zendesk.com,Cheng,Cui,Active,ccui@zendesk.com,06/03/2016,Zuora Billing Standard User,Zuora Payments Standard User,Zuora Commerce Admin User,Administrator,N/A,Zuora Reporting Administrator,N/A,09/16/2019
2c92c0f95696fb2401569fd7457f3f5b,rringler@zendesk.com,Ryan,Ringler,Active,rringler@zendesk.com,08/18/2016,Zuora Billing Admin User,Zuora Payments Standard User,Zuora Commerce Admin User,Administrator,N/A,Zuora Reporting Standard User,N/A,09/06/2019
2c92c0f957084b2801570f16041a08c6,dtobin@zendesk.com,David,Tobin,Active,dtobin@zendesk.com,09/09/2016,Zuora Billing Standard User,Zuora Payments Standard User,Zuora Commerce Standard User,Standard User,N/A,Zuora Reporting Standard User,N/A,N/A
2c92c0f957084b3601570f0f9d6523e2,emarciniak@zendesk.com,Ewa,Marciniak,Active,emarciniak@zendesk.com,09/09/2016,Zuora Billing Standard User,Zuora Payments Standard User,Zuora Commerce Standard User,Standard User,N/A,Zuora Reporting Standard User,N/A,N/A
2c92c0f957084b3601570f1682422c1e,lschutte@zendesk.com,Lonneke,Schutte,Pending Activation,lschutte@zendesk.com,09/09/2016,Zuora Billing Standard User,Zuora Payments Standard User,Zuora Commerce Standard User,Standard User,N/A,Zuora Reporting Standard User,N/A,N/A
2c92c0f9576a3e6301576c23bf305df2,gshakair@zendesk.com,Gofran,Shakair,Active,gshakair@zendesk.com,09/27/2016,Zuora Billing Standard User,Zuora Payments Standard User,Zuora Commerce Standard User,Standard User,N/A,Zuora Reporting Standard User,N/A,N/A
2c92c0f957f5652b0157f7c2e15a5f38,asilva@zendesk.com,Augusto,Silva,Active,asilva@zendesk.com,10/24/2016,Zuora Billing Standard User,Zuora Payments Standard User,Zuora Commerce Standard User,Standard User,N/A,Zuora Reporting Standard User,N/A,01/04/2018
2c92c0f95847b06901584ff22b7d5627,mchng@zendesk.com,Mervyn,Chng,Active,mchng@zendesk.com,11/10/2016,Zuora Billing Standard User,Zuora Payments Standard User,Zuora Commerce Standard User,Administrator,N/A,Zuora Reporting Standard User,N/A,12/13/2017
2c92c0f95a24621b015a2a08081b32e5,obhatt-api@zendesk.com,Billing,API,Active,obhatt@zendesk.com,02/10/2017,Zuora Billing Standard User,Zuora Payments Standard User,Zuora Commerce Standard User,Standard User,N/A,Zuora Reporting Standard User,N/A,02/13/2017
2c92c0f95b8faab3015b98e6db0f65d5,jgalang+zuora-api@zendesk.com,Juris,Galang,Active,jgalang+zuora-api@zendesk.com,04/22/2017,Zuora Billing Standard User,Zuora Payments Standard User,Zuora Commerce Standard User,API User,N/A,Zuora Reporting Standard User,N/A,04/23/2017
2c92c0f95bae621a015bc246c957360a,akunday@zendesk.com,Arvind,Kunday,Active,akunday@zendesk.com,04/30/2017,Zuora Billing Standard User,Zuora Payments Standard User,Zuora Commerce Admin User,Administrator,N/A,Zuora Reporting Administrator,N/A,07/13/2017
2c92c0f95d7d612e015da5a56ca43eda,abeck@zendesk.com,Adam,Beck,Active,abeck@zendesk.com,08/02/2017,Zuora Billing Standard User,Zuora Payments Standard User,Zuora Commerce Standard User,Standard User,N/A,Zuora Reporting Standard User,N/A,08/03/2017
2c92c0f95d7d614d015d9a4a0acb5d54,smichaels@zendesk.com,Sam,Michaels,Active,smichaels@zendesk.com,07/31/2017,Zuora Billing Standard User,Zuora Payments Standard User,Zuora Commerce Standard User,Administrator,N/A,Zuora Reporting Standard User,N/A,09/06/2018
2c92c0f95fa60ace015fb6e48dfa0dd5,wschmidt@zendesk.com,Billy,Schmidt,Active,wschmidt@zendesk.com,11/13/2017,Zuora Billing Standard User,Zuora Payments Standard User,Zuora Commerce Standard User,Administrator,N/A,Zuora Reporting Standard User,N/A,11/20/2017
2c92c0f9602fb245016047373ced2c7b,fnoorie@zendesk.com,Farheen,Noorie,Active,fnoorie@zendesk.com,12/11/2017,Zuora Billing Admin User,Zuora Payments Standard User,Zuora Commerce Admin User,Administrator,N/A,Zuora Reporting Administrator,N/A,12/11/2018
2c92c0f960c105580160c32fe0197930,kraza@zendesk.com,Kaz,Raza,Active,kraza@zendesk.com,01/04/2018,Zuora Billing Admin User,Zuora Payments Standard User,Zuora Commerce Admin User,Administrator,N/A,Zuora Reporting Administrator,N/A,02/07/2019
2c92c0f96140e56601615809aab635fa,jclifford@zendesk.com,John,Clifford,Active,jclifford@zendesk.com,02/02/2018,Zuora Billing Admin User,Zuora Payments Standard User,Zuora Commerce Admin User,Administrator,N/A,Zuora Reporting Administrator,N/A,02/15/2018
2c92c0f96178a7a90161b996b700021d,eocarrol@zendesk.com,Elaine,O'Carrol,Pending Activation,eocarrol@zendesk.com,02/21/2018,Zuora Billing Admin User,Zuora Payments Standard User,Zuora Commerce Admin User,Administrator,N/A,Zuora Reporting Administrator,N/A,N/A
2c92c0f96178a7ae016196ef32421425,aabdul@zendesk.com,Asim,Abdul,Active,aabdul@zendesk.com,02/14/2018,Zuora Billing Admin User,Zuora Payments Standard User,Zuora Commerce Admin User,Administrator,N/A,Zuora Reporting Administrator,N/A,09/17/2019
2c92c0f962f92b970162fa306c0b5ac0,teuget@zendesk.com,Thomas,Euget,Active,teuget@zendesk.com,04/24/2018,Zuora Billing Admin User,Zuora Payments Standard User,Zuora Commerce Admin User,Administrator,N/A,Zuora Reporting Standard User,N/A,05/17/2018
2c92c0f96367d9800163717fde5d026c,rsim@zendesk.com,Russell,Sim,Pending Activation,rsim@zendesk.com,05/17/2018,Zuora Billing Standard User,Zuora Payments Standard User,Zuora Commerce Admin User,Administrator,N/A,Zuora Reporting Administrator,N/A,N/A
2c92c0f9657e77850165871d167d33f7,echinveeraphan@zendesk.com,Eugene,Chinveeraphan,Active,echinveeraphan@zendesk.com,08/29/2018,Zuora Billing Standard User,Zuora Payments Standard User,Zuora Commerce Standard User,Administrator,N/A,Zuora Reporting Standard User,N/A,09/19/2019
2c92c0f96ade6db2016ae02dbba86f95,dpeterson@zendesk.com,Derek,Peterson,Active,dpeterson@zendesk.com,05/22/2019,Zuora Billing Admin User,Zuora Payments Standard User,Zuora Commerce Admin User,Administrator,N/A,Zuora Reporting Administrator,N/A,09/19/2019
2c92c0f96ade6db7016ae02c55f74d6b,kmundt@zendesk.com,Kyle,Mundt,Active,kmundt@zendesk.com,05/22/2019,Zuora Billing Admin User,Zuora Payments Standard User,Zuora Commerce Admin User,Administrator,N/A,Zuora Reporting Administrator,N/A,08/15/2019
2c92c0f96bd14055016bd365f4af62e2,tunguyen@zendesk.com,Tung,Nguyen,Active,tunguyen@zendesk.com,07/08/2019,Zuora Billing Admin User,Zuora Payments Standard User,Zuora Commerce Admin User,Standard User,N/A,Zuora Reporting Administrator,N/A,07/08/2019
2c92c0f96c1ccb63016c1fff399c3cb4,cwang@zendesk.com,chengyang,wang,Deactivated,cwang@zendesk.com,07/23/2019,Zuora Billing Admin User,Zuora Payments Standard User,Zuora Commerce Admin User,API User,N/A,Zuora Reporting Administrator,N/A,07/23/2019
2c92c0f96c1ccb63016c2004f3cb526a,cwang1@zendesk.com,chengyang,wang,Active,cwang@zendesk.com,07/23/2019,Zuora Billing Admin User,Zuora Payments Standard User,Zuora Commerce Admin User,Administrator,N/A,Zuora Reporting Administrator,N/A,07/23/2019
2c92c0f96c6b89d8016c72f02b1f3ac1,jlei@zendesk.com,Jinhuan,Lei,Active,jlei@zendesk.com,08/08/2019,Zuora Billing Standard User,Zuora Payments Standard User,Zuora Commerce Standard User,Standard User,N/A,Zuora Reporting Standard User,N/A,09/19/2019
2c92c0f96c99c26d016c9af1a21543d4,lpapp@zendesk.com,Laszlo,Papp,Active,lpapp@zendesk.com,08/16/2019,Zuora Billing Admin User,Zuora Payments Standard User,Zuora Commerce Admin User,Standard User,N/A,Zuora Reporting Administrator,N/A,08/16/2019
4028e69632bcaec40132cb2c42260e58,"johnm@zendesk.com ",John,McGuire,Deactivated,"johnm@zendesk.com ",10/03/2011,Zuora Billing Standard User,Zuora Payments Standard User,Zuora Commerce Admin User,Administrator,N/A,Zuora Reporting Standard User,N/A,06/27/2013
4028e69632d7eeda0132da2fba3b4547,john.lee@zendesk.com,John,Lee,Active,john.lee@fronteraconsulting.net,10/06/2011,Zuora Billing Standard User,Zuora Payments Standard User,Zuora Commerce Admin User,Administrator,N/A,Zuora Reporting Standard User,N/A,N/A
4028e69632d7eeda0132e0cfe7272cb9,pchaitanya@zendesk.com,Prudhvi,,Active,pchaitanya@zendesk.com,10/07/2011,Zuora Billing Standard User,Zuora Payments Standard User,Zuora Commerce Admin User,Administrator,N/A,Zuora Reporting Standard User,N/A,02/22/2016
4028e69633157293013319833ddd7c52,praveen.challa@zendesk.com,praveen,challa,Active,praveen.challa@fronteraconsulting.net,10/18/2011,Zuora Billing Standard User,Zuora Payments Standard User,Zuora Commerce Admin User,Administrator,N/A,Zuora Reporting Standard User,N/A,11/10/2011
4028e6963315729301331984c10c7cf3,priya.challa@zendesk.net,Priya,Challa,Active,priya.challa@fronteraconsulting.net,10/18/2011,Zuora Billing Standard User,Zuora Payments Standard User,Zuora Commerce Admin User,Administrator,N/A,Zuora Reporting Standard User,N/A,10/20/2011
4028e69633a5d6760133ad8c05107261,stan@zendesk.com,,,Active,stan@zendesk.com,11/16/2011,Zuora Billing Standard User,Zuora Payments Standard User,Zuora Commerce Admin User,Administrator,N/A,Zuora Reporting Standard User,N/A,02/07/2013
4028e69633a5d6760133ad8c5ac072ac,allan@zendesk.com,,,Deactivated,allan@zendesk.com,11/16/2011,Zuora Billing Standard User,Zuora Payments Standard User,Zuora Commerce Admin User,Administrator,N/A,Zuora Reporting Standard User,N/A,01/16/2012
4028e69633b30b5e0133b8a903762c5b,alex.gurevich@zendesk.com,,,Active,alex.gurevich@zendesk.com,11/18/2011,Zuora Billing Standard User,Zuora Payments Standard User,Zuora Commerce Admin User,Administrator,N/A,Zuora Reporting Standard User,N/A,07/19/2012
4028e69633b30b5e0133b8a9b14d2cbc,paul@zendesk.com,Paul,Shih,Active,paul@zendesk.com,11/18/2011,Zuora Billing Standard User,Zuora Payments Standard User,Zuora Commerce Admin User,Administrator,N/A,Zuora Reporting Standard User,N/A,02/20/2013
4028e69633f7e23b013405eda30956a2,maksim.demin@zendesk.com,makshim,demin,Active,maksim.demin@zuora.com,12/03/2011,Zuora Billing Standard User,Zuora Payments Standard User,Zuora Commerce Admin User,Administrator,N/A,Zuora Reporting Standard User,N/A,05/13/2012
4028e6963467b22b013467dbc318040b,admin@zendesk.com,Zuora,Support,Active,fernando.duarte@zuora.com,12/22/2011,Zuora Billing Standard User,Zuora Payments Standard User,Zuora Commerce Admin User,Administrator,N/A,Zuora Reporting Standard User,N/A,09/30/2015
4028e69634fc96fe013510e1a94a7677,sblendstrup@zendesk.com,Stephan,Blendstrup,Active,sblendstrup@zendesk.com,01/24/2012,Zuora Billing Standard User,Zuora Payments Standard User,Zuora Commerce Admin User,Administrator,N/A,Zuora Reporting Standard User,N/A,N/A
4028e69634fc96fe0135111fd9771874,jcostello@zendesk.com,Jonathan,,Active,jcostello@zendesk.com,01/24/2012,Zuora Billing Standard User,Zuora Payments Standard User,Zuora Commerce Admin User,Administrator,N/A,Zuora Reporting Standard User,N/A,N/A
4028e69635a7f3390135cbdab96a175b,dclendenin@zendesk.com,Dylan,,Deactivated,dclendenin@zendesk.com,02/29/2012,Zuora Billing Standard User,Zuora Payments Standard User,Zuora Commerce Admin User,Administrator,N/A,Zuora Reporting Standard User,N/A,N/A
4028e696360fa47801361c5bf86a7a04,jferrero@zendesk.com,Joe,Ferrero,Active,jferrero@zendesk.com,03/16/2012,Zuora Billing Standard User,Zuora Payments Standard User,Zuora Commerce Admin User,Administrator,N/A,Zuora Reporting Standard User,N/A,02/22/2016
4028e696360fa47801361d5fde7e3ef4,zuora-api@zendesk.com,Zuora,API Oldtenant - DO NOT USE,Deactivated,zuora-api@zendesk.com,03/16/2012,Zuora Billing Standard User,Zuora Payments Standard User,Zuora Commerce Admin User,Administrator,N/A,Zuora Reporting Standard User,N/A,03/01/2018
4028e6963640ae3301364163a91f3f98,maubin@zendesk.com,Marc,Aubin,Active,maubin@zendesk.com,03/23/2012,Zuora Billing Standard User,Zuora Payments Standard User,Zuora Commerce Admin User,Administrator,N/A,Zuora Reporting Standard User,N/A,N/A
4028e69636ace03f0136cc4efd441d47,datawarehouse-api@zendesk.com.sb,Data,WarehouseSandBox,Active,datawarehouse-api@zendesk.com,04/19/2012,Zuora Billing Standard User,Zuora Payments Standard User,Zuora Commerce Admin User,Administrator,N/A,Zuora Reporting Standard User,N/A,01/14/2013
4028e69637ca8c190137cdbece621cde,mike.sullivan-Zendesk@zuora.com,Mike,Sullivan,Active,mike.sullivan@zuora.com,06/08/2012,Zuora Billing Standard User,Zuora Payments Standard User,Zuora Commerce Admin User,Administrator,N/A,Zuora Reporting Standard User,N/A,05/01/2013
4028e696380c01c401380fdd4b1a4d84,mhurley@zendesk.com,Maeve,Hurley,Active,mhurley@zendesk.com,06/21/2012,Zuora Billing Standard User,Zuora Payments Standard User,Zuora Commerce Admin User,Standard User,N/A,Zuora Reporting Standard User,N/A,N/A
4028e69732d7eb100132e0c85a3a195d,ben.rohrs@zendesk.com,Ben,,Active,ben.rohrs@zendesk.com,10/07/2011,Zuora Billing Standard User,Zuora Payments Standard User,Zuora Commerce Admin User,Administrator,N/A,Zuora Reporting Standard User,N/A,05/30/2013
4028e69732d7eb100132e0cf68ee2ae8,scott.calvert@zendesk.com,Scott,Calvert,Deactivated,scott.calvert@zendesk.com,10/07/2011,Zuora Billing Standard User,Zuora Payments Standard User,Zuora Commerce Admin User,Administrator,N/A,Zuora Reporting Standard User,N/A,11/14/2011
4028e69732d7eb100132f90c4eeb4378,kenny@zendesk.com,Kenny,Buckler,Active,kenny@zendesk.com,10/12/2011,Zuora Billing Standard User,Zuora Payments Standard User,Zuora Commerce Admin User,Administrator,N/A,Zuora Reporting Standard User,N/A,02/22/2018
4028e69733b308300133b326ffaf3b3f,jvilar@zendesk.com,jose,vilar,Deactivated,jvilar@zendesk.com,11/17/2011,Zuora Billing Standard User,Zuora Payments Standard User,Zuora Commerce Admin User,Administrator,N/A,Zuora Reporting Standard User,N/A,07/01/2016
4028e69733e7f1ee0133f165f468590a,madhukar.kumar@zendesk.com,Madhukar,Kumar,Active,madhukar.kumar@zuora.com,11/29/2011,Zuora Billing Standard User,Zuora Payments Standard User,Zuora Commerce Admin User,Administrator,N/A,Zuora Reporting Standard User,N/A,N/A
4028e69733e7f1ee0133f1f6afb37578,samuel.stilwell@zendesk.com,Samuel,Stilwell,Active,samuel.stilwell@zuora.com,11/29/2011,Zuora Billing Standard User,Zuora Payments Standard User,Zuora Commerce Admin User,Administrator,N/A,Zuora Reporting Standard User,N/A,N/A
4028e69733f7df140133faaca46c0b3d,balaji.ramanujam@zendesk.com,Balaji,Ramanujam,Active,balaji.ramanujam@zuora.com,12/01/2011,Zuora Billing Standard User,Zuora Payments Standard User,Zuora Commerce Admin User,Administrator,N/A,Zuora Reporting Standard User,N/A,10/22/2012
4028e6973460960f013462e488200208,support_api@zendesk.com,Marlene,Summers,Active,marlene.summers@zuora.com,12/21/2011,Zuora Billing Standard User,Zuora Payments Standard User,Zuora Commerce Admin User,Administrator,N/A,Zuora Reporting Standard User,N/A,04/02/2012
4028e69734e9bbe30134f81732971830,API_User@zendesk.com,,,Pending Activation,API_User@zendesk.com,01/19/2012,Zuora Billing Standard User,Zuora Payments Standard User,Zuora Commerce Admin User,Administrator,N/A,Zuora Reporting Standard User,N/A,N/A
4028e69734e9bbe30134f8190ebe1b4a,api_dev@zendesk.com,,,Deactivated,ben.rohrs@zendesk.com,01/19/2012,Zuora Billing Standard User,Zuora Payments Standard User,Zuora Commerce Admin User,Administrator,N/A,Zuora Reporting Standard User,N/A,02/25/2013
4028e69734fffb3e0135111f8aec1570,krisb@zendesk.com,Kris,,Active,krisb@zendesk.com,01/24/2012,Zuora Billing Standard User,Zuora Payments Standard User,Zuora Commerce Admin User,Administrator,N/A,Zuora Reporting Standard User,N/A,N/A
4028e6973522448e013553e270ae5897,mlieberman@zendesk.com,Mindy,Lieberman,Active,mlieberman@zendesk.com,02/06/2012,Zuora Billing Standard User,Zuora Payments Standard User,Zuora Commerce Admin User,Administrator,N/A,Zuora Reporting Standard User,N/A,12/03/2013
4028e69735cce4830135d0663e7610b2,tmusante@zendesk.com,Thomas,Musante,Active,tmusante@zendesk.com,03/01/2012,Zuora Billing Standard User,Zuora Payments Standard User,Zuora Commerce Admin User,Administrator,N/A,Zuora Reporting Standard User,N/A,07/18/2012
4028e69737163f4e013733482a9e7b21,chad@zendesk.com,Chad,Smith,Pending Activation,chad@zendesk.com,05/09/2012,Zuora Billing Standard User,Zuora Payments Standard User,Zuora Commerce Admin User,Administrator,N/A,Zuora Reporting Standard User,N/A,N/A
