<?xml version="1.0" encoding="UTF-8" standalone="no"?>
<svg width="46px" height="46px" viewBox="0 0 46 46" version="1.1" xmlns="http://www.w3.org/2000/svg" xmlns:xlink="http://www.w3.org/1999/xlink" xmlns:sketch="http://www.bohemiancoding.com/sketch/ns">
    <title>Screen Shot 2014-04-30 at 3.43</title>
    <description>Created with Sketch (http://www.bohemiancoding.com/sketch)</description>
    <defs></defs>
    <g id="Page-1" stroke="none" stroke-width="1" fill="none" fill-rule="evenodd" sketch:type="MSPage">
        <path d="M9.98773443,6.1000061 L1.33226763e-15,6.1000061 L3.55271368e-15,45.9853025 L39.9693584,45.9853025 L39.9693584,36.1689608 L35.0999756,36.1689608 C34.9837894,36.1689608 35.0999756,40.5 35.0999756,40.5 L5.49432623,40.3437805 L5.5,11.1000061 L9.9944483,11.1000061 L9.98773443,6.1000061 Z M14.0866089,28.4960327 L36.5789795,5.94598389 L25.0795538,5.92596326 C25.0563928,5.92592293 25.1113892,0.805908203 25.1113892,0.805908203 L45.09552,1 L45.06073,21 L39.9206543,21 L39.9786377,9.56384277 L17.5994873,31.9375 L14.0866089,28.4960327 Z" id="Path-9" fill="#555555" sketch:type="MSShapeGroup"></path>
    </g>
</svg>