<?xml version="1.0" encoding="utf-8"?>
<!-- Generator: Adobe Illustrator 18.1.1, SVG Export Plug-In . SVG Version: 6.00 Build 0)  -->
<svg version="1.1" id="Layer_1" xmlns="http://www.w3.org/2000/svg" xmlns:xlink="http://www.w3.org/1999/xlink" x="0px" y="0px"
	 viewBox="0 0 90 168" enable-background="new 0 0 90 168" xml:space="preserve">
<g>
	<path fill="#6D6E71" d="M82.8,37.5l-7.1-3.2c0.2-0.3,0.3-0.4,0.3-0.4c0.2-0.2,0.3-0.5,0.2-0.9s-0.3-0.6-0.5-0.7l-9.9-5
		c-0.3-0.2-0.7-0.1-1,0c-0.3,0.2-0.5,0.5-0.5,0.9c0,0,0,0.3,0,0.8l-18.1-8.2V18c1.6-0.2,3.1-1,4.3-2.2c1.4-1.4,2.1-3.4,2-5.4
		c-0.1-3.8-3.2-6.9-7-7c-2-0.1-3.9,0.6-5.4,2c-1.4,1.4-2.2,3.3-2.2,5.3c0,0.6,0.4,1,1,1s1-0.4,1-1c0-1.5,0.6-2.8,1.6-3.8
		c1.1-1,2.4-1.5,3.9-1.5c2.7,0.1,5,2.4,5.1,5.1c0.1,1.5-0.5,2.8-1.5,3.9c-1,1.1-2.4,1.6-3.8,1.6c-0.6,0-1,0.4-1,1v3.8l-18.1,8.2
		c0-0.5,0-0.8,0-0.8c0-0.3-0.2-0.7-0.5-0.9c-0.3-0.2-0.7-0.2-1,0l-9.9,5c-0.3,0.1-0.5,0.4-0.5,0.7c-0.1,0.3,0,0.6,0.2,0.9
		c0,0,0.1,0.1,0.3,0.4l-7.1,3.2c-2,1-3,3-2.5,5.2c0.5,2.1,2.3,3.6,4.5,3.6h8.8c0.3,4.4-0.2,9.9-2.4,16.7c-0.1,0.2-0.1,0.4,0,0.6
		l9.2,32.3c-1.5,3.5-13.9,34.1-13.7,68.3c0,0.5,0.5,1,1,1h65.3c0.5,0,1-0.4,1-1c0.3-34.2-12.2-64.8-13.7-68.3l9.2-32.3
		c0.1-0.2,0.1-0.4,0-0.6c-2.2-6.8-2.7-12.3-2.4-16.7h8.8c2.2,0,4-1.4,4.5-3.6C85.8,40.6,84.8,38.5,82.8,37.5z M45.2,22.6l18.9,8.6
		c-0.2,3-0.8,7.8-2.3,13H28.6c-1.5-5.2-2-10-2.3-13L45.2,22.6z M61.3,46.3c-2.6,7.9-7.3,16-16.1,19.1c-8.8-3.1-13.5-11.2-16.1-19.1
		H61.3z M9.7,44.3c-1.5,0-2.3-1.1-2.5-2c-0.2-0.9,0-2.2,1.4-2.9l7.3-3.3c0.9,1.7,2,4.4,2.5,8.2H9.7z M76.9,163.1H13.6
		c0-32.7,11.5-61.8,13.4-66.3h36.6C65.4,101.3,76.9,130.4,76.9,163.1z M72.5,63.3l-9,31.6H27.1l-9-31.6c5.5-17,0.7-26.6-1.3-29.6
		l7.4-3.7c0,0.2,0,0.4,0,0.7c0,0.1,0,0.2,0,0.3c0.2,3,0.8,8.4,2.4,14.3c3.4,11.7,9.7,19.4,18.2,22.3c0.2,0.1,0.4,0.1,0.6,0
		c8.5-2.8,14.8-10.5,18.2-22.3c1.7-6,2.3-11.5,2.5-14.5c0,0,0,0,0,0c0-0.3,0-0.5,0-0.8l7.4,3.7C71.8,36.6,67,46.2,72.5,63.3z
		 M83.3,42.3c-0.2,0.9-1,2-2.5,2h-8.6c0.5-3.8,1.6-6.5,2.5-8.2l7.3,3.3C83.3,40,83.5,41.3,83.3,42.3z"/>
	<path fill="#6D6E71" d="M45.2,71.8c-2.1,0-3.7,1.7-3.7,3.7s1.7,3.7,3.7,3.7s3.7-1.7,3.7-3.7S47.3,71.8,45.2,71.8z M45.2,77.2
		c-1,0-1.7-0.8-1.7-1.7s0.8-1.7,1.7-1.7s1.7,0.8,1.7,1.7S46.2,77.2,45.2,77.2z"/>
	<path fill="#6D6E71" d="M45.2,82.9c-2.1,0-3.7,1.7-3.7,3.7c0,2.1,1.7,3.7,3.7,3.7s3.7-1.7,3.7-3.7C49,84.5,47.3,82.9,45.2,82.9z
		 M45.2,88.3c-1,0-1.7-0.8-1.7-1.7c0-1,0.8-1.7,1.7-1.7s1.7,0.8,1.7,1.7C47,87.5,46.2,88.3,45.2,88.3z"/>
</g>
</svg>
