<?xml version="1.0" encoding="utf-8"?>
<!-- Generator: Adobe Illustrator 18.1.1, SVG Export Plug-In . SVG Version: 6.00 Build 0)  -->
<svg version="1.1" id="Layer_1" xmlns="http://www.w3.org/2000/svg" xmlns:xlink="http://www.w3.org/1999/xlink" x="0px" y="0px"
	 viewBox="0 0 160 160" enable-background="new 0 0 160 160" xml:space="preserve">
<g>
	<path fill="#6D6E71" d="M80,108.8c2.7,0,4.9-2.2,4.9-4.9c0-2.7-2.2-4.9-4.9-4.9s-4.9,2.2-4.9,4.9C75.1,106.5,77.3,108.8,80,108.8z
		 M80,101.4c1.3,0,2.4,1.1,2.4,2.4s-1.1,2.4-2.4,2.4s-2.4-1.1-2.4-2.4S78.7,101.4,80,101.4z"/>
	<path fill="#6D6E71" d="M80,135.9c-2.7,0-4.9,2.2-4.9,4.9c0,2.7,2.2,4.9,4.9,4.9s4.9-2.2,4.9-4.9C84.9,138.1,82.7,135.9,80,135.9z
		 M80,143.2c-1.3,0-2.4-1.1-2.4-2.4s1.1-2.4,2.4-2.4s2.4,1.1,2.4,2.4S81.3,143.2,80,143.2z"/>
	<path fill="#6D6E71" d="M137,134.2c13.4-14.1,21.7-33.2,21.7-54.2c0-43.4-35.3-78.8-78.8-78.8S1.2,36.6,1.2,80
		c0,21.1,8.4,40.3,22,54.5c0.1,0.2,0.3,0.3,0.4,0.4C38,149.6,57.9,158.8,80,158.8c22.3,0,42.4-9.3,56.7-24.2
		C136.8,134.5,136.9,134.4,137,134.2z M137.7,129.7l10.7-83.3c5,10.1,7.8,21.5,7.8,33.6C156.2,99,149.3,116.4,137.7,129.7z
		 M121.7,16.2L79.3,49.7L37.5,16.7c12.2-8.2,26.8-13,42.5-13C95.4,3.8,109.7,8.4,121.7,16.2z M91.3,56.1v21.5H68.7V56.1H91.3z
		 M11.6,46.4l11,83.6C10.9,116.6,3.8,99.1,3.8,80C3.8,68,6.6,56.6,11.6,46.4z M25.5,133.2L13.6,42.6C19,33,26.5,24.7,35.4,18.2
		l44.9,35.4H67.7L29.9,41.2c-1.8-0.6-3.7-0.2-5.3,0.9c-1.5,1.1-2.4,2.9-2.4,4.8l2.1,39.7c0,1.9,0.9,3.6,2.4,4.8
		c1,0.8,2.3,1.2,3.5,1.2c0.6,0,1.2-0.1,1.8-0.3l30.8-10.6v72.5C48.3,150.9,35.5,143.5,25.5,133.2z M31.2,90
		c-1.1,0.3-2.2,0.1-3.1-0.5c-0.9-0.7-1.4-1.7-1.4-2.8l-2.1-39.7c0-1.1,0.5-2.1,1.4-2.8c0.9-0.7,2-0.9,3-0.5l37.1,12.1v6.2H48.8
		c-0.7,0-1.2,0.6-1.2,1.2s0.6,1.2,1.2,1.2h17.5v4.8H48.8c-0.7,0-1.2,0.6-1.2,1.2s0.6,1.2,1.2,1.2h17.5v6.2L31.2,90z M65.2,154.8
		V80.9l2.5-0.8h24.6l2.5,0.8v73.9c-4.8,0.9-9.7,1.4-14.8,1.4S70,155.7,65.2,154.8z M93.8,77.9v-6.2H111c0.7,0,1.2-0.6,1.2-1.2
		s-0.6-1.2-1.2-1.2H93.8v-4.8H111c0.7,0,1.2-0.6,1.2-1.2s-0.6-1.2-1.2-1.2H93.8v-6.2l37.1-12.1c1.1-0.3,2.2-0.1,3.1,0.5
		c0.9,0.7,1.4,1.7,1.4,2.7l-2.1,39.9c0,1.1-0.5,2.1-1.4,2.8c-0.9,0.7-2,0.9-3,0.5L93.8,77.9z M97.2,154.3V81.8l30.8,10.6
		c0.6,0.2,1.2,0.3,1.7,0.3c1.3,0,2.5-0.4,3.5-1.2c1.5-1.1,2.4-2.9,2.4-4.7l2.1-39.9c0-1.9-0.9-3.6-2.4-4.8c-1.5-1.1-3.4-1.5-5.3-0.9
		L92.3,53.6h-8l-3-2.4l42.6-33.5c9.2,6.5,16.9,15,22.5,24.9l-11.6,90.3C124.8,143.3,111.8,150.9,97.2,154.3z"/>
</g>
</svg>
