<?xml version="1.0" encoding="UTF-8" standalone="no"?>
<svg width="13px" height="20px" viewBox="0 0 13 20" version="1.1" xmlns="http://www.w3.org/2000/svg" xmlns:xlink="http://www.w3.org/1999/xlink" xmlns:sketch="http://www.bohemiancoding.com/sketch/ns">
    <!-- Generator: Sketch 3.5.1 (25234) - http://www.bohemiancoding.com/sketch -->
    <title>ic-thumb-down-grey</title>
    <desc>Created with Sketch.</desc>
    <defs></defs>
    <g id="desktop" stroke="none" stroke-width="1" fill="none" fill-rule="evenodd" sketch:type="MSPage">
        <g id="red-button-spec" sketch:type="MSArtboardGroup" transform="translate(-71.000000, -434.000000)" fill="#BBBBBB">
            <g id="unselected" sketch:type="MSLayerGroup" transform="translate(56.000000, 425.000000)">
                <g id="ic-thumb-down-grey" transform="translate(15.000000, 9.000000)" sketch:type="MSShapeGroup">
                    <path d="M12.311386,7.77769288 C12.311386,6.95199181 12.1681449,6.28161132 11.3991996,6.28161132 L11.3934834,6.28161132 C11.9682,6.17628568 12.0834854,5.5793955 12.0834854,4.85561236 C12.0834854,4.05856309 11.9452513,3.41199186 11.2029265,3.41199186 L10.5651638,3.41199186 C11.068239,3.25895804 11.1727595,2.67870295 11.1727595,1.98375096 C11.1727595,1.17266725 11.0320219,0.514931222 10.2774299,0.514931222 L3.8393439,0.514931222 C1.71910111,0.514931222 0,2.36200859 0,4.64083592 L0,9.04411161 C0,10.6600913 0.831824466,11.9418448 2.13935272,12.4892781 C3.15718609,13.2083532 5.20699751,14.9207806 5.64377212,17.3006739 L5.64377212,19.096187 C5.64377212,19.096187 8.50717429,19.4303683 8.50717429,16.5377019 C8.50717429,13.1308723 6.51135469,12.5772961 8.1002746,12.4943 L10.47024,12.4943 C11.3074469,12.4943 11.4629133,11.7649121 11.4629133,10.8650033 C11.4629133,10.0836475 11.3450409,9.43200951 10.7661101,9.27368475 L11.3991996,9.27368475 C12.1681449,9.27368475 12.311386,8.60406652 12.311386,7.77769288" id="Fill-1"></path>
                </g>
            </g>
        </g>
    </g>
</svg>