<?xml version="1.0" encoding="UTF-8" standalone="no"?>
<svg width="12px" height="20px" viewBox="0 0 12 20" version="1.1" xmlns="http://www.w3.org/2000/svg" xmlns:xlink="http://www.w3.org/1999/xlink" xmlns:sketch="http://www.bohemiancoding.com/sketch/ns">
    <!-- Generator: Sketch 3.5.1 (25234) - http://www.bohemiancoding.com/sketch -->
    <title>ic-thumb-up-blue</title>
    <desc>Created with Sketch.</desc>
    <defs></defs>
    <g id="desktop" stroke="none" stroke-width="1" fill="none" fill-rule="evenodd" sketch:type="MSPage">
        <g id="blue-button-spec" sketch:type="MSArtboardGroup" transform="translate(-77.000000, -131.000000)" fill="#1F73B7">
            <g id="default" sketch:type="MSLayerGroup" transform="translate(60.000000, 124.000000)">
                <g id="ic-thumb-up-blue" transform="translate(17.000000, 7.500000)" sketch:type="MSShapeGroup">
                    <path d="M5.86854661,8.41898952 C5.86854661,9.09824963 5.98376995,9.64838088 6.60381991,9.64838088 L10.0268264,9.64838088 C10.6467218,9.64838088 10.7618679,9.09824963 10.7618679,8.41898952 C10.7618679,7.73964475 10.6467218,7.18909012 10.0268264,7.18909012 L6.60381991,7.18909012 C5.98376995,7.18909012 5.86854661,7.73964475 5.86854661,8.41898952" id="Fill-1"></path>
                    <path d="M5.24710562,11.3337029 C5.24710562,12.0126243 5.3625608,12.5636023 5.98191525,12.5636023 L10.5627966,12.5636023 C11.1828465,12.5636023 11.2983017,12.0126243 11.2983017,11.3337029 C11.2983017,10.6544852 11.1828465,10.1039729 10.5627966,10.1039729 L5.98191525,10.1039729 C5.3625608,10.1039729 5.24710562,10.6544852 5.24710562,11.3337029" id="Fill-2"></path>
                    <path d="M5.86008453,14.2931246 C5.86008453,14.9719189 5.97553971,15.5224312 6.59477824,15.5224312 L10.2083167,15.5224312 C10.8282121,15.5224312 10.9438218,14.9719189 10.9438218,14.2931246 C10.9438218,13.6134411 10.8282121,13.0632251 10.2083167,13.0632251 L6.59477824,13.0632251 C5.97553971,13.0632251 5.86008453,13.6134411 5.86008453,14.2931246" id="Fill-3"></path>
                    <path d="M6.45648704,17.3143163 C6.45648704,17.9931954 6.57194222,18.54375 7.19141258,18.54375 L9.24982234,18.54375 C9.86936998,18.54375 9.98501836,17.9931954 9.98501836,17.3143163 C9.98501836,16.6346752 9.86936998,16.0844169 9.24982234,16.0844169 L7.19141258,16.0844169 C6.57194222,16.0844169 6.45648704,16.6346752 6.45648704,17.3143163" id="Fill-5"></path>
                    <path d="M6.1709789,18.3921824 C6.04509102,18.1288019 5.9889863,17.7963268 5.9889863,17.3143163 C5.9889863,16.8320518 6.04509102,16.4992804 6.1709789,16.2359846 C6.21448711,16.1445783 6.27418532,16.0479645 6.35447845,15.9590984 C5.91765756,15.8964815 5.69026341,15.6134142 5.57434455,15.3708636 C5.44853396,15.1074407 5.39262243,14.775135 5.39262243,14.2931246 C5.39262243,13.810733 5.44853396,13.4782156 5.57434455,13.2146658 C5.60877245,13.1428617 5.65316937,13.0675436 5.7096605,12.9951891 C5.29362773,12.923639 5.07438653,12.6481923 4.96136565,12.411696 C4.83555505,12.1483155 4.77941168,11.8157558 4.77941168,11.3337029 C4.77941168,10.8516078 4.83555505,10.5190057 4.96136565,10.2555828 C5.07241591,10.0232779 5.28640212,9.75380083 5.68852463,9.6765352 C5.64598241,9.61688191 5.61097491,9.55566213 5.58292255,9.4971096 C5.45707331,9.23377142 5.40092995,8.9012117 5.40092995,8.41898952 C5.40092995,7.93664034 5.45707331,7.60416529 5.58292255,7.3407001 C5.71406541,7.06639654 5.98767255,6.73929834 6.54678783,6.73929834 L7.24461934,6.73929834 C7.31648903,6.16943789 8.75596937,4.95084256 8.75596937,2.45886738 C8.75596937,-0.272313699 6.1043642,0.0432264127 6.1043642,0.0432264127 L6.1043642,1.73858241 C5.63922047,3.62822441 2.55222408,6.54543571 1.67788679,7.3421819 C0.64304053,7.92118721 0,9.05244064 0,10.4468629 L0,14.6044309 C0,16.756141 1.59191364,18.5002696 3.55542449,18.5002696 L6.22928609,18.5002696 C6.2072615,18.4639018 6.18782578,18.4276187 6.1709789,18.3921824" id="Fill-6"></path>
                </g>
            </g>
        </g>
    </g>
</svg>
