<?xml version="1.0" encoding="UTF-8" standalone="no"?>
<svg width="22px" height="22px" viewBox="0 0 22 22" version="1.1" xmlns="http://www.w3.org/2000/svg" xmlns:xlink="http://www.w3.org/1999/xlink" xmlns:sketch="http://www.bohemiancoding.com/sketch/ns">
    <!-- Generator: Sketch 3.5.1 (25234) - http://www.bohemiancoding.com/sketch -->
    <title>ic-warning-tick</title>
    <desc>Created with Sketch.</desc>
    <defs></defs>
    <g id="desktop" stroke="none" stroke-width="1" fill="none" fill-rule="evenodd" sketch:type="MSPage">
        <g id="assets" sketch:type="MSArtboardGroup" transform="translate(-165.000000, -194.000000)">
            <g id="ic-warning-tick" sketch:type="MSLayerGroup" transform="translate(165.000000, 194.000000)">
                <circle id="Oval-52" stroke="#ACD0E4" sketch:type="MSShapeGroup" cx="11" cy="11" r="11"></circle>
                <g id="Fill-1-Copy" transform="translate(6.000000, 7.000000)" fill="#333333" sketch:type="MSShapeGroup">
                    <path d="M3.44651102,9.17867848 C3.14408113,9.17867848 2.85834982,9.04601752 2.67559311,8.816412 L0.195853544,5.72235013 C-0.126058026,5.31926489 -0.0425651117,4.74678181 0.383248753,4.44166159 C0.809990316,4.13654137 1.4157778,4.21613795 1.73768937,4.61820272 L3.3685843,6.65403829 L7.4699418,0.430198122 C7.75196232,0.00262162971 8.34754511,-0.127998397 8.80211764,0.137323532 C9.25483478,0.404686398 9.39306194,0.967985262 9.11104143,1.39658222 L4.26659698,8.74804058 C4.09868345,9.00315782 3.80831365,9.16337145 3.49011287,9.17765801 C3.47526969,9.17867848 3.46042651,9.17867848 3.44651102,9.17867848"></path>
                </g>
            </g>
        </g>
    </g>
</svg>