<?xml version="1.0" encoding="UTF-8"?>
<svg width="16px" height="16px" viewBox="0 0 16 16" version="1.1" xmlns="http://www.w3.org/2000/svg" xmlns:xlink="http://www.w3.org/1999/xlink">
    <!-- Generator: Sketch 55.1 (78136) - https://sketchapp.com -->
    <title>Artboard</title>
    <desc>Created with Sketch.</desc>
    <g id="Artboard" stroke="none" stroke-width="1" fill="none" fill-rule="evenodd">
        <g id="16px-icons/info/1.-stroke">
            <rect id="binding-box" fill-opacity="0" fill="#000000" fill-rule="nonzero" x="0" y="0" width="16" height="16"></rect>
            <path d="M7.5,6 C6.94771525,6 6.5,5.55228475 6.5,5 C6.5,4.44771525 6.94771525,4 7.5,4 C8.05228475,4 8.5,4.44771525 8.5,5 C8.5,5.55228475 8.05228475,6 7.5,6 Z M8,12.5 C8,12.7761424 7.77614237,13 7.5,13 C7.22385763,13 7,12.7761424 7,12.5 L7,8 C7,7.72385763 7.22385763,7.5 7.5,7.5 C7.77614237,7.5 8,7.72385763 8,8 L8,12.5 Z M7.5,16 C3.35786438,16 0,12.6421356 0,8.5 C0,4.35786438 3.35786438,1 7.5,1 C11.6421356,1 15,4.35786438 15,8.5 C15,12.6421356 11.6421356,16 7.5,16 Z M7.5,15 C11.0898509,15 14,12.0898509 14,8.5 C14,4.91014913 11.0898509,2 7.5,2 C3.91014913,2 1,4.91014913 1,8.5 C1,12.0898509 3.91014913,15 7.5,15 Z" id="icon" fill="#68737D" fill-rule="evenodd"></path>
        </g>
    </g>
</svg>