<?xml version="1.0" encoding="UTF-8"?>
<svg width="82px" height="82px" viewBox="0 0 82 82" version="1.1" xmlns="http://www.w3.org/2000/svg" xmlns:xlink="http://www.w3.org/1999/xlink">
    <!-- Generator: Sketch 48.2 (47327) - http://www.bohemiancoding.com/sketch -->
    <title>chemistry_icon</title>
    <desc>Created with Sketch.</desc>
    <defs>
        <path d="M0.636,0.75 L0.636,50.312 C2.074,51.528 3.598,52.644 5.201,53.65 L47.685,53.65 C48.783,52.96 49.842,52.221 50.865,51.432 L50.865,0.75 L0.636,0.75 Z" id="path-1"></path>
        <path d="M0.636,0.75 L0.636,50.312 C2.074,51.528 3.598,52.644 5.201,53.65 L47.685,53.65 C48.783,52.96 49.842,52.221 50.865,51.432 L50.865,0.75 L0.636,0.75 Z" id="path-3"></path>
        <path d="M0.636,0.75 L0.636,50.312 C2.074,51.528 3.598,52.644 5.201,53.65 L47.685,53.65 C48.783,52.96 49.842,52.221 50.865,51.432 L50.865,0.75" id="path-5"></path>
        <path d="M0.636,0.75 L0.636,50.312 C2.074,51.528 3.598,52.644 5.201,53.65 L47.685,53.65 C48.783,52.96 49.842,52.221 50.865,51.432 L50.865,0.75" id="path-7"></path>
        <path d="M0.636,0.75 L0.636,50.312 C2.074,51.528 3.598,52.644 5.201,53.65 L47.685,53.65 C48.783,52.96 49.842,52.221 50.865,51.432 L50.865,0.75" id="path-9"></path>
        <path d="M0.636,0.75 L0.636,50.312 C2.074,51.528 3.598,52.644 5.201,53.65 L47.685,53.65 C48.783,52.96 49.842,52.221 50.865,51.432 L50.865,0.75" id="path-11"></path>
        <path d="M0.636,0.75 L0.636,50.312 C2.074,51.528 3.598,52.644 5.201,53.65 L47.685,53.65 C48.783,52.96 49.842,52.221 50.865,51.432 L50.865,0.75" id="path-13"></path>
        <path d="M0.636,0.75 L0.636,50.312 C2.074,51.528 3.598,52.644 5.201,53.65 L47.685,53.65 C48.783,52.96 49.842,52.221 50.865,51.432 L50.865,0.75" id="path-15"></path>
        <path d="M0.636,0.75 L0.636,50.312 C2.074,51.528 3.598,52.644 5.201,53.65 L47.685,53.65 C48.783,52.96 49.842,52.221 50.865,51.432 L50.865,0.75" id="path-17"></path>
        <path d="M0.636,0.75 L0.636,50.312 C2.074,51.528 3.598,52.644 5.201,53.65 L47.685,53.65 C48.783,52.96 49.842,52.221 50.865,51.432 L50.865,0.75" id="path-19"></path>
        <path d="M0.636,0.75 L0.636,50.312 C2.074,51.528 3.598,52.644 5.201,53.65 L47.685,53.65 C48.783,52.96 49.842,52.221 50.865,51.432 L50.865,0.75" id="path-21"></path>
        <path d="M0.636,0.75 L0.636,50.312 C2.074,51.528 3.598,52.644 5.201,53.65 L47.685,53.65 C48.783,52.96 49.842,52.221 50.865,51.432 L50.865,0.75" id="path-23"></path>
        <path d="M0.636,0.75 L0.636,50.312 C2.074,51.528 3.598,52.644 5.201,53.65 L47.685,53.65 C48.783,52.96 49.842,52.221 50.865,51.432 L50.865,0.75" id="path-25"></path>
        <path d="M0.636,0.75 L0.636,50.312 C2.074,51.528 3.598,52.644 5.201,53.65 L47.685,53.65 C48.783,52.96 49.842,52.221 50.865,51.432 L50.865,0.75" id="path-27"></path>
        <path d="M0.636,0.75 L0.636,50.312 C2.074,51.528 3.598,52.644 5.201,53.65 L47.685,53.65 C48.783,52.96 49.842,52.221 50.865,51.432 L50.865,0.75" id="path-29"></path>
        <path d="M0.636,0.75 L0.636,50.312 C2.074,51.528 3.598,52.644 5.201,53.65 L47.685,53.65 C48.783,52.96 49.842,52.221 50.865,51.432 L50.865,0.75" id="path-31"></path>
        <path d="M0.636,0.75 L0.636,50.312 C2.074,51.528 3.598,52.644 5.201,53.65 L47.685,53.65 C48.783,52.96 49.842,52.221 50.865,51.432 L50.865,0.75" id="path-33"></path>
    </defs>
    <g id="Activate-support-full-page---admin" stroke="none" stroke-width="1" fill="none" fill-rule="evenodd" transform="translate(-910.000000, -258.000000)">
        <g id="Prop-3" transform="translate(830.000000, 258.000000)">
            <g id="chemistry_icon" transform="translate(80.000000, 0.000000)">
                <path d="M0.7502,40.75 C0.7502,18.658 18.6582,0.75 40.7502,0.75 C62.8412,0.75 80.7502,18.658 80.7502,40.75 C80.7502,62.842 62.8412,80.75 40.7502,80.75 C18.6582,80.75 0.7502,62.842 0.7502,40.75 Z" id="Stroke-1" stroke="#03363D" stroke-width="1.5"></path>
                <g id="Group-54" transform="translate(15.000000, 20.500000)">
                    <g id="Group-5">
                        <mask id="mask-2" fill="white">
                            <use xlink:href="#path-1"></use>
                        </mask>
                        <g id="Clip-4"></g>
                        <path d="M31.0676,11.4775 C32.4916,11.4775 33.6456,12.6315 33.6456,14.0555 C33.6456,15.4795 32.4916,16.6335 31.0676,16.6335 C29.6436,16.6335 28.4896,15.4795 28.4896,14.0555 C28.4896,12.6315 29.6436,11.4775 31.0676,11.4775 Z" id="Stroke-3" stroke="#03363D" stroke-width="1.842" stroke-linecap="round" stroke-linejoin="round" mask="url(#mask-2)"></path>
                    </g>
                    <g id="Group-8">
                        <mask id="mask-4" fill="white">
                            <use xlink:href="#path-3"></use>
                        </mask>
                        <g id="Clip-7"></g>
                        <path d="M25.8652,5.8145 C26.9072,5.8145 27.7532,6.6595 27.7532,7.7025 C27.7532,8.7445 26.9072,9.5895 25.8652,9.5895 C24.8232,9.5895 23.9772,8.7445 23.9772,7.7025 C23.9772,6.6595 24.8232,5.8145 25.8652,5.8145 Z" id="Stroke-6" stroke="#03363D" stroke-width="1.842" stroke-linecap="round" stroke-linejoin="round" mask="url(#mask-4)"></path>
                    </g>
                    <g id="Group-11">
                        <mask id="mask-6" fill="white">
                            <use xlink:href="#path-5"></use>
                        </mask>
                        <g id="Clip-10"></g>
                        <path d="M33.7842,3.1903 C33.7842,4.0193 33.0932,4.7093 32.2652,4.7093 C31.4362,4.7093 30.7452,4.0193 30.7452,3.1903 C30.7452,2.3613 31.4362,1.6713 32.2652,1.6713 C33.0932,1.6713 33.7842,2.3613 33.7842,3.1903" id="Stroke-9" stroke="#03363D" stroke-width="1.842" stroke-linecap="round" stroke-linejoin="round" mask="url(#mask-6)"></path>
                    </g>
                    <g id="Group-14">
                        <mask id="mask-8" fill="white">
                            <use xlink:href="#path-7"></use>
                        </mask>
                        <g id="Clip-13"></g>
                        <path d="M44.2351,33.0242 L44.2351,44.4422 C44.2351,45.8232 43.1301,46.9282 41.7491,46.9282 C40.3681,46.9282 39.2631,45.8232 39.2631,44.4422 L39.2631,33.0242" id="Stroke-12" stroke="#03363D" stroke-width="1.842" stroke-linecap="round" stroke-linejoin="round" mask="url(#mask-8)"></path>
                    </g>
                    <g id="Group-17">
                        <mask id="mask-10" fill="white">
                            <use xlink:href="#path-9"></use>
                        </mask>
                        <g id="Clip-16"></g>
                        <path d="M33.554,33.0242 L33.554,44.4422 C33.554,45.8232 32.449,46.9282 31.068,46.9282 C29.687,46.9282 28.582,45.8232 28.582,44.4422 L28.582,33.0242" id="Stroke-15" stroke="#03363D" stroke-width="1.842" stroke-linecap="round" stroke-linejoin="round" mask="url(#mask-10)"></path>
                    </g>
                    <g id="Group-20">
                        <mask id="mask-12" fill="white">
                            <use xlink:href="#path-11"></use>
                        </mask>
                        <g id="Clip-19"></g>
                        <path d="M22.8726,33.0242 L22.8726,44.4422 C22.8726,45.8232 21.7676,46.9282 20.3866,46.9282 C19.0056,46.9282 17.9006,45.8232 17.9006,44.4422 L17.9006,33.0242" id="Stroke-18" stroke="#03363D" stroke-width="1.842" stroke-linecap="round" stroke-linejoin="round" mask="url(#mask-12)"></path>
                    </g>
                    <g id="Group-23">
                        <mask id="mask-14" fill="white">
                            <use xlink:href="#path-13"></use>
                        </mask>
                        <g id="Clip-22"></g>
                        <path d="M12.1454,33.0242 L12.1454,44.4422 C12.1454,45.8232 11.0404,46.9282 9.6594,46.9282 C8.2784,46.9282 7.1734,45.8232 7.1734,44.4422 L7.1734,33.0242" id="Stroke-21" stroke="#03363D" stroke-width="1.842" stroke-linecap="round" stroke-linejoin="round" mask="url(#mask-14)"></path>
                    </g>
                    <g id="Group-26">
                        <mask id="mask-16" fill="white">
                            <use xlink:href="#path-15"></use>
                        </mask>
                        <g id="Clip-25"></g>
                        <path d="M44.2351,21.192 L44.2351,44.488 C44.2351,45.869 43.1301,46.974 41.7491,46.974 C40.3681,46.974 39.2631,45.869 39.2631,44.488 L39.2631,21.192" id="Stroke-24" stroke="#03363D" stroke-width="1.842" stroke-linecap="round" stroke-linejoin="round" mask="url(#mask-16)"></path>
                    </g>
                    <g id="Group-29">
                        <mask id="mask-18" fill="white">
                            <use xlink:href="#path-17"></use>
                        </mask>
                        <g id="Clip-28"></g>
                        <path d="M38.2038,21.192 L45.2938,21.192" id="Stroke-27" stroke="#03363D" stroke-width="1.842" stroke-linecap="round" stroke-linejoin="round" mask="url(#mask-18)"></path>
                    </g>
                    <g id="Group-32">
                        <mask id="mask-20" fill="white">
                            <use xlink:href="#path-19"></use>
                        </mask>
                        <g id="Clip-31"></g>
                        <path d="M12.1454,21.192 L12.1454,44.488 C12.1454,45.869 11.0404,46.974 9.6594,46.974 C8.2784,46.974 7.1734,45.869 7.1734,44.488 L7.1734,21.192" id="Stroke-30" stroke="#03363D" stroke-width="1.842" stroke-linecap="round" stroke-linejoin="round" mask="url(#mask-20)"></path>
                    </g>
                    <g id="Group-35">
                        <mask id="mask-22" fill="white">
                            <use xlink:href="#path-21"></use>
                        </mask>
                        <g id="Clip-34"></g>
                        <path d="M6.1141,21.192 L13.2041,21.192" id="Stroke-33" stroke="#03363D" stroke-width="1.842" stroke-linecap="round" stroke-linejoin="round" mask="url(#mask-22)"></path>
                    </g>
                    <g id="Group-38">
                        <mask id="mask-24" fill="white">
                            <use xlink:href="#path-23"></use>
                        </mask>
                        <g id="Clip-37"></g>
                        <path d="M22.8726,21.192 L22.8726,44.488 C22.8726,45.869 21.7676,46.974 20.3866,46.974 C19.0056,46.974 17.9006,45.869 17.9006,44.488 L17.9006,21.192" id="Stroke-36" stroke="#03363D" stroke-width="1.842" stroke-linecap="round" stroke-linejoin="round" mask="url(#mask-24)"></path>
                    </g>
                    <g id="Group-41">
                        <mask id="mask-26" fill="white">
                            <use xlink:href="#path-25"></use>
                        </mask>
                        <g id="Clip-40"></g>
                        <path d="M16.7952,21.192 L23.8852,21.192" id="Stroke-39" stroke="#03363D" stroke-width="1.842" stroke-linecap="round" stroke-linejoin="round" mask="url(#mask-26)"></path>
                    </g>
                    <g id="Group-44">
                        <mask id="mask-28" fill="white">
                            <use xlink:href="#path-27"></use>
                        </mask>
                        <g id="Clip-43"></g>
                        <path d="M33.554,21.192 L33.554,44.488 C33.554,45.869 32.449,46.974 31.068,46.974 C29.687,46.974 28.582,45.869 28.582,44.488 L28.582,21.192" id="Stroke-42" stroke="#03363D" stroke-width="1.842" stroke-linecap="round" stroke-linejoin="round" mask="url(#mask-28)"></path>
                    </g>
                    <g id="Group-47">
                        <mask id="mask-30" fill="white">
                            <use xlink:href="#path-29"></use>
                        </mask>
                        <g id="Clip-46"></g>
                        <path d="M27.5227,21.192 L34.5667,21.192" id="Stroke-45" stroke="#03363D" stroke-width="1.842" stroke-linecap="round" stroke-linejoin="round" mask="url(#mask-30)"></path>
                    </g>
                    <g id="Group-50">
                        <mask id="mask-32" fill="white">
                            <use xlink:href="#path-31"></use>
                        </mask>
                        <g id="Clip-49"></g>
                        <polyline id="Stroke-48" stroke="#03363D" stroke-width="1.842" stroke-linecap="round" stroke-linejoin="round" mask="url(#mask-32)" points="1.5562 52.7294 1.5562 33.0244 49.9442 33.0244 49.9442 52.7294"></polyline>
                    </g>
                    <g id="Group-53">
                        <mask id="mask-34" fill="white">
                            <use xlink:href="#path-33"></use>
                        </mask>
                        <g id="Clip-52"></g>
                        <path d="M1.5562,39.2396 L49.9442,39.2396" id="Stroke-51" stroke="#03363D" stroke-width="1.842" stroke-linecap="round" stroke-linejoin="round" mask="url(#mask-34)"></path>
                    </g>
                </g>
            </g>
        </g>
    </g>
</svg>