<?xml version="1.0" encoding="UTF-8"?>
<svg width="82px" height="82px" viewBox="0 0 82 82" version="1.1" xmlns="http://www.w3.org/2000/svg" xmlns:xlink="http://www.w3.org/1999/xlink">
    <!-- Generator: Sketch 48.2 (47327) - http://www.bohemiancoding.com/sketch -->
    <title>handshake_icon</title>
    <desc>Created with Sketch.</desc>
    <defs></defs>
    <g id="Activate-support-full-page---admin" stroke="none" stroke-width="1" fill="none" fill-rule="evenodd" transform="translate(-629.000000, -259.000000)">
        <g id="Prop-2" transform="translate(550.000000, 258.000000)">
            <g id="handshake_icon" transform="translate(79.000000, 1.000000)">
                <path d="M0.7496,40.7505 C0.7496,18.6585 18.6586,0.7505 40.7496,0.7505 C62.8416,0.7505 80.7496,18.6585 80.7496,40.7505 C80.7496,62.8415 62.8416,80.7505 40.7496,80.7505 C18.6586,80.7505 0.7496,62.8415 0.7496,40.7505 Z" id="Stroke-1" stroke="#03363D" stroke-width="1.5"></path>
                <g id="Group-21" transform="translate(13.000000, 19.500000)" stroke="#01363D" stroke-linejoin="round" stroke-width="1.685">
                    <path d="M11.2447,32.5693 L4.8337,26.1583 C-1.1473,20.1773 -1.2733,10.2613 4.8387,4.4143 C10.7637,-1.2537 20.1667,-1.1737 25.9927,4.6533 L34.9607,13.6213 C35.6597,14.3193 35.6597,15.4523 34.9607,16.1503 C33.3077,17.8033 30.6287,17.8033 28.9747,16.1503 L23.2807,10.4563" id="Stroke-3" stroke-linecap="round"></path>
                    <path d="M28.0276,6.6879 L30.0626,4.6529 C35.9706,-1.2551 45.5536,-1.2551 51.4606,4.6529 C57.3676,10.5609 57.3676,20.1429 51.4606,26.0509 L45.2146,32.2969" id="Stroke-5" stroke-linecap="round"></path>
                    <path d="M27.401,24.3577 L16.308,35.4507 C15.128,36.6307 13.214,36.6307 12.034,35.4507 C10.854,34.2697 10.854,32.3567 12.034,31.1767 L28.018,15.1927" id="Stroke-7" stroke-linecap="round"></path>
                    <path d="M31.6752,28.6321 L20.5822,39.7251 C19.4022,40.9051 17.4882,40.9051 16.3082,39.7251 C15.1282,38.5441 15.1282,36.6301 16.3082,35.4501 L27.4012,24.3581" id="Stroke-9" stroke-linecap="round"></path>
                    <path d="M23.857,44.6629 C22.766,45.1059 21.468,44.8849 20.582,43.9989 C19.402,42.8189 19.402,40.9049 20.582,39.7249 L31.675,28.6319" id="Stroke-11" stroke-linecap="round"></path>
                    <path d="M44.7286,36.0695 C43.5486,37.2495 41.6346,37.2495 40.4546,36.0695 L36.8516,32.4665 C35.6716,31.2865 35.6716,29.3735 36.8516,28.1935 C38.0326,27.0125 39.9456,27.0125 41.1256,28.1935 L44.7286,31.7955 C45.9086,32.9755 45.9086,34.8895 44.7286,36.0695 Z" id="Stroke-13" stroke-linecap="round"></path>
                    <path d="M40.4541,40.344 C39.2741,41.524 37.3601,41.524 36.1801,40.344 L32.5771,36.741 C31.3971,35.561 31.3971,33.648 32.5771,32.467 C33.7581,31.287 35.6711,31.287 36.8511,32.467 L40.4541,36.07 C41.6341,37.25 41.6341,39.164 40.4541,40.344 Z" id="Stroke-15" stroke-linecap="round"></path>
                    <path d="M36.1798,44.6185 C34.9998,45.7985 33.0858,45.7985 31.9058,44.6185 L28.3028,41.0155 C27.1228,39.8355 27.1228,37.9215 28.3028,36.7415 C29.4838,35.5615 31.3968,35.5615 32.5768,36.7415 L36.1798,40.3445 C37.3598,41.5245 37.3598,43.4385 36.1798,44.6185 Z" id="Stroke-17" stroke-linecap="round"></path>
                    <path d="M31.9053,48.8929 C30.7253,50.0729 28.8113,50.0729 27.6313,48.8929 L24.0283,45.2899 C22.8483,44.1099 22.8483,42.1959 24.0283,41.0159 C25.2093,39.8359 27.1223,39.8359 28.3023,41.0159 L31.9053,44.6189 C33.0853,45.7989 33.0853,47.7119 31.9053,48.8929 Z" id="Stroke-19"></path>
                </g>
            </g>
        </g>
    </g>
</svg>