id,account_id,"name","description",entries_count,is_locked,position,organization_id,"updated_at","sorting",use_for_suggestions,category_id,display_type_id,visibility_restriction_id,translation_locale_id,"created_at","deleted_at"
"6","42","les questions","Des questions sur nos produits","1","0","9999",NULL,"2012-10-13 17:31:35","votes_count DESC, posts_count DESC","1","11","3","1","16","2012-10-08 11:25:39",NULL
"27","42","Questions from the community","Questions and answers. Ask questions, vote, and watch the community answer.","1","0","1",NULL,"2012-10-13 17:31:16","updated_at DESC","1","6","3","1",NULL,"2012-10-05 10:23:03",NULL
"32","42","Community Help","Questions and answers. Ask questions, vote, and watch the community answer.","0","0","2",NULL,"2012-10-05 10:23:03","is_highlighted DESC, updated_at DESC","1",NULL,"3","1",NULL,"2012-10-05 10:23:03",NULL
"37","42","Tips & Tricks","Various tips and tricks from users. Vote for the most helpful tips.","0","0","3",NULL,"2012-10-05 10:23:03","is_highlighted DESC, updated_at DESC","1",NULL,"1","1",NULL,"2012-10-05 10:23:03",NULL
"42","42","Feature Requests","Ideas and requests for new features. Suggest ideas. Vote for the best. See what's planned.","0","0","4",NULL,"2012-10-05 10:23:03","is_highlighted DESC, updated_at DESC","1",NULL,"2","1",NULL,"2012-10-05 10:23:03",NULL
"47","42","Agents Only","","1","0","6",NULL,"2012-10-05 10:23:03","is_highlighted DESC, updated_at DESC","1",NULL,"1","3",NULL,"2012-10-05 10:23:03",NULL
"52","42","Announcements","New announcements from Mondocam","3","1","9999",NULL,"2012-10-08 09:00:58","votes_count DESC, posts_count DESC","1","6","1","1",NULL,"2012-10-08 09:00:58",NULL
"57","42","Annonces","","1","0","9999",NULL,"2012-10-08 11:33:54","votes_count DESC, posts_count DESC","1","11","1","1","16","2012-10-08 09:22:36",NULL
"62","42","Ankündigungen","","1","1","9999",NULL,"2012-10-08 11:28:03","votes_count DESC, posts_count DESC","1","16","1","1","8","2012-10-08 09:25:12",NULL
"67","42","Things that happen rarely","","0","0","9999",NULL,"2012-10-13 17:26:19","votes_count DESC, posts_count DESC","1","6","1","1",NULL,"2012-10-13 17:26:19",NULL
"72","42","Ideas","Give us your ideas to new products or features","0","0","9999",NULL,"2012-10-13 17:30:38","votes_count DESC, posts_count DESC","1","6","2","1",NULL,"2012-10-13 17:30:38",NULL
"1002","42","What's new in Help Center","","2","0","9999",NULL,"2012-12-10 14:22:50","votes_count DESC, posts_count DESC","1","6","1","1",NULL,"2012-12-10 14:22:50",NULL
"1007","42","Known issues and bugs","","3","0","9999",NULL,"2012-12-10 14:24:10","votes_count DESC, posts_count DESC","1","6","1","1",NULL,"2012-12-10 14:24:10",NULL
"1012","42","Getting Started Guide","","2","0","9999",NULL,"2012-12-10 14:26:21","votes_count DESC, posts_count DESC","1","1002","1","1",NULL,"2012-12-10 14:26:21",NULL
"1017","42","Tips & Tricks","","2","0","9999",NULL,"2012-12-10 14:27:32","votes_count DESC, posts_count DESC","1","1002","1","1",NULL,"2012-12-10 14:27:32",NULL
"1022","42","This is an internal section","","2","1","9999",NULL,"2012-12-10 14:29:23","votes_count DESC, posts_count DESC","1","1007","1","3",NULL,"2012-12-10 14:29:23",NULL
"1027","42","This is another internal section","","2","1","9999",NULL,"2012-12-10 14:30:48","votes_count DESC, posts_count DESC","1","1007","1","3",NULL,"2012-12-10 14:30:48",NULL
"10001","42","Aide communautaire","","0","0","9999",NULL,"2012-10-17 08:21:25","votes_count DESC, posts_count DESC","1",NULL,"1","1","16","2012-10-17 08:21:25",NULL
"10006","42","Trucs et astuces","","0","0","9999",NULL,"2012-10-17 08:22:12","votes_count DESC, posts_count DESC","1",NULL,"1","1","16","2012-10-17 08:22:12",NULL
"10008","42","Malicious Content","","0","0","9999",NULL,"2015-09-24 08:22:12","votes_count DESC, posts_count DESC","1",NULL,"1","1","16","2015-09-24 08:22:12",NULL
