created_by_id,created_date,description,effective_end_date,effective_start_date,id,name,sku,updated_by_id,updated_date,catalog_version__c,product_type__c
2c92a0f949ac50670149c08059f36422,2019-05-03T15:59:24-07:00,Sunshine (Reseller),3000-01-01T00:00:00+00:00,2000-01-01T00:00:00+00:00,2c92a0076a7cc053016a7fec78417da9,Sunshine (Reseller),SKU-A-00000011,2c92a0f949ac50670149c08059f36422,2020-04-03T10:20:43-07:00,Post-PCR,Subscription
2c92a0f949ac50670149c08059f36422,2019-05-27T11:44:49-07:00,"",3000-01-01T00:00:00+00:00,2000-01-01T00:00:00+00:00,2c92a0076ae9189c016afa9c036c7527,Sell: Addons (Manual Billing),SKU-A-00000013,2c92a0f949ac50670149c08059f36422,2019-07-26T06:42:05-07:00,Post-PCR,Subscription
2c92a0f949ac50670149c08059f36422,2019-06-03T15:15:17-07:00,"",3000-01-01T00:00:00+00:00,2000-01-01T00:00:00+00:00,2c92a0076ae9189c016b1f693551380d,Sell: Voice (Manual Billing),SKU-A-00000016,2c92a0f949ac50670149c08059f36422,2019-07-26T06:42:10-07:00,Post-PCR,Voice
2c92a0f949ac50670149c08059f36422,2020-01-13T10:18:49-08:00,"",3000-01-01T00:00:00+00:00,2000-01-01T00:00:00+00:00,2c92a0076f9ddb87016fa0213ad24eae,CX (Recurring),SKU-A-00000021,2c92a0f949ac50670149c08059f36422,2020-10-01T14:39:03-07:00,Post-PCR,CX
2c92a0f949ac50670149c08059f36422,2019-05-03T15:14:26-07:00,Sunshine,3000-01-01T00:00:00+00:00,2000-01-01T00:00:00+00:00,2c92a0086a7ccf8a016a7fc34d3c5b13,Sunshine,SKU-A-00000010,2c92a0f949ac50670149c08059f36422,2020-04-03T10:22:02-07:00,Post-PCR,Subscription
2c92a0f949ac50670149c08059f36422,2019-05-15T07:40:54-07:00,"",3000-01-01T00:00:00+00:00,2000-01-01T00:00:00+00:00,2c92a0086aba144a016abbf063b54caa,Tiered (Reseller),SKU-A-00000012,2c92a0f949ac50670149c08059f36422,2019-06-03T13:35:45-07:00,Post-PCR,Subscription
2c92a0f949ac50670149c08059f36422,2019-11-22T15:41:20-08:00,Sell,3000-01-01T00:00:00+00:00,2000-01-01T00:00:00+00:00,2c92a0086e881155016e957dd0680548,Sell,SKU-A-00000018,2c92a0f949ac50670149c08059f36422,2020-05-14T11:34:06-07:00,Post-PCR,Subscription
2c92a0f949ac50670149c08059f36422,2019-06-17T13:02:57-07:00,"",3000-01-01T00:00:00+00:00,2010-01-01T00:00:00+00:00,2c92a00c6b6403d7016b670918a956d0,Training (Recurring),SKU-A-00000017,2c92a0f949ac50670149c08059f36422,2019-06-21T12:37:14-07:00,Post-PCR,Services
2c92a0f949ac50670149c08059f36422,2019-11-25T14:29:29-08:00,Sell (Reseller),3000-01-01T00:00:00+00:00,2000-01-01T00:00:00+00:00,2c92a00c6e88001d016ea4af1bef5987,Sell (Reseller),SKU-A-00000019,2c92a0f949ac50670149c08059f36422,2020-05-14T11:23:29-07:00,Post-PCR,Subscription
2c92a0f949ac50670149c08059f36422,2019-05-28T06:32:57-07:00,"",3000-01-01T00:00:00+00:00,2000-01-01T00:00:00+00:00,2c92a00e6ae91854016afea4d7c864fd,Sell (Manual Billing),SKU-A-00000014,2c92a0f949ac50670149c08059f36422,2019-07-26T06:42:03-07:00,Post-PCR,Subscription
2c92a0f949ac50670149c08059f36422,2019-06-24T18:47:42-07:00,Connect (Reseller),3000-01-01T00:00:00+00:00,2000-01-01T00:00:00+00:00,2c92a00e6b791226016b8c513c7700ed,Connect (Reseller),SKU-A-00000009,2c92a0f949ac50670149c08059f36422,2019-08-01T13:08:06-07:00,Post-PCR,Subscription
4028e4873772f1940137802e86967fe7,2013-02-12T17:04:43-08:00,Non Standard Professional Services,2017-08-12T00:00:00+00:00,2000-01-01T00:00:00+00:00,2c92a0f93cc9157c013cd1150f3338ea,[Non Standard Professional Services],SKU-00000063,2c92a0f949ac50670149c08059f36422,2017-08-15T17:01:59-07:00,Pre-PCR,Services
4028e48735e470510135e9bf57b1005c,2013-08-28T13:45:59-07:00,Support Subscription Elite Model,2017-08-12T00:00:00+00:00,2001-10-20T00:00:00+00:00,2c92a0f940a4690e0140c6acf9975cde,[Support Subscription Elite Model],SKU-00000067,2c92a0f949ac50670149c08059f36422,2017-08-15T17:02:01-07:00,Pre-PCR,Subscription
4028e4873772f1940137802e86967fe7,2014-04-24T14:39:20-07:00,Chat,2017-08-12T00:00:00+00:00,2014-03-01T00:00:00+00:00,2c92a0f945922a10014595adb6622e50,[Chat],SKU-00000071,2c92a0f949ac50670149c08059f36422,2017-08-15T17:02:00-07:00,Pre-PCR,Subscription
4028e4873772f1940137802e86967fe7,2014-08-05T07:53:19-07:00,Chat - CC,2017-08-12T00:00:00+00:00,2001-10-20T00:00:00+00:00,2c92a0f9479fb46f0147a6a901056ced,[Chat - CC],SKU-00000075,2c92a0f949ac50670149c08059f36422,2017-08-15T17:02:00-07:00,Pre-PCR,Subscription
4028e4873772f1940137802e86967fe7,2015-08-03T19:46:54-07:00,Talk Recharge,2017-08-12T00:00:00+00:00,2001-05-01T00:00:00+00:00,2c92a0f94edd617a014ef69ac2921bed,[Talk Recharge],SKU-00000078,2c92a0f949ac50670149c08059f36422,2017-09-07T16:29:28-07:00,Pre-PCR,Voice
4028e4873772f1940137802e86967fe7,2015-11-18T09:50:15-08:00,Talk Subscription,2017-08-12T00:00:00+00:00,2015-11-19T00:00:00+00:00,2c92a0f951005f3d01511bb7e6135018,[Talk Subscription],SKU-00000083,2c92a0f949ac50670149c08059f36422,2017-08-15T17:02:01-07:00,Pre-PCR,Subscription
4028e48735e470510135e9bf57b1005c,2012-09-17T09:26:39-07:00,Support Subscription Model - CC,2017-08-12T00:00:00+00:00,2001-10-20T00:00:00+00:00,2c92a0fb39b8f05d0139d50d8f3956d6,[Support Subscription Model - CC],SKU-00000059,2c92a0f949ac50670149c08059f36422,2017-08-15T17:02:01-07:00,Pre-PCR,Subscription
4028e48735e470510135e9bf57b1005c,2012-12-14T15:12:22-08:00,"",2017-08-12T00:00:00+00:00,2003-01-01T00:00:00+00:00,2c92a0fb3b73fa9b013b9bb0a26c356d,[Reseller Products],SKU-00000061,2c92a0f949ac50670149c08059f36422,2017-08-15T17:02:01-07:00,Pre-PCR,Subscription
4028e48735e470510135e9bf57b1005c,2012-12-17T10:16:32-08:00,These are billable accounts that don't fall into the standard offered ZD products,2017-08-12T00:00:00+00:00,2001-01-01T00:00:00+00:00,2c92a0fb3b73fa9b013baa14df467f33,[Non Standard Invoicing Products],SKU-00000062,2c92a0f949ac50670149c08059f36422,2019-07-31T13:33:14-07:00,Pre-PCR,Subscription
4028e48735e470510135e9bf57b1005c,2013-02-15T09:50:09-08:00,Sponsorship Products,2017-08-12T00:00:00+00:00,2013-02-01T00:00:00+00:00,2c92a0fb3cc919c7013cdefa48620dbd,[Sponsorship Products],SKU-00000065,2c92a0f949ac50670149c08059f36422,2017-08-15T17:02:00-07:00,Pre-PCR,Other
4028e48735e470510135e9bf57b1005c,2014-01-23T16:08:57-08:00,For internal employee Zendesk accounts,2017-08-12T00:00:00+00:00,2014-01-01T00:00:00+00:00,2c92a0fb43bdc32b0143c193fad43a40,[Employee Pricing Catalog],SKU-00000069,2c92a0f949ac50670149c08059f36422,2017-08-15T17:02:00-07:00,Pre-PCR,Subscription
4028e4873772f1940137802e86967fe7,2015-10-06T15:35:07-07:00,Support Subscription Patagonia Pricing Model effective Nov-2015,2017-08-12T00:00:00+00:00,2015-10-21T00:00:00+00:00,2c92a0fb501f2f5701503f4b3e081381,[Support Subscription Patagonia Model],SKU-00000080,2c92a0f949ac50670149c08059f36422,2017-08-15T17:02:01-07:00,Pre-PCR,Subscription
4028e4873772f1940137802e86967fe7,2015-10-06T17:17:58-07:00,Addons,2017-08-12T00:00:00+00:00,2015-10-21T00:00:00+00:00,2c92a0fb501f2f5701503fa96a0c1c3c,[Addons],SKU-00000082,2c92a0f949ac50670149c08059f36422,2017-08-15T17:02:01-07:00,Pre-PCR,Addon
2c92a0fe5c494462015c587c9d427ec8,2017-08-07T10:27:49-07:00,"",3000-01-01T00:00:00+00:00,2000-01-01T00:00:00+00:00,2c92a0fc5d8298f5015dbdbd0d504bc8,Professional Services (Nonrecurring),SKU-00000121,2c92a0f949ac50670149c08059f36422,2020-10-05T06:46:34-07:00,Post-PCR,Services
2c92a0fe5c494462015c587c9d427ec8,2017-08-07T11:05:50-07:00,"",3000-01-01T00:00:00+00:00,2000-01-01T00:00:00+00:00,2c92a0fc5d8298f5015dbddfd98a1879,Chat,SKU-00000130,2c92a0f949ac50670149c08059f36422,2018-08-02T07:49:17-07:00,Post-PCR,Subscription
2c92a0f949ac50670149c08059f36422,2019-05-30T13:41:30-07:00,"",3000-01-01T00:00:00+00:00,2000-01-01T00:00:00+00:00,2c92a0fc6ae918b6016b0a79ea1437df,Sell: Services (Manual Billing),SKU-A-00000015,2c92a0f949ac50670149c08059f36422,2020-08-05T06:38:00-07:00,Post-PCR,Services
4028e4873772f1940137802e86967fe7,2016-02-25T17:18:14-08:00,Talk Subscription - CC,2017-08-12T00:00:00+00:00,2001-04-01T00:00:00+00:00,2c92a0fd5316e85401531b279e611a69,[Talk Subscription - CC],SKU-00000084,2c92a0f949ac50670149c08059f36422,2017-08-15T17:02:01-07:00,Pre-PCR,Subscription
2c92a0fb3b45a10e013b4927d5023745,2016-08-29T08:05:42-07:00,Reseller Products - Chat (PRM),2017-08-12T00:00:00+00:00,2003-01-01T00:00:00+00:00,2c92a0fd56c018c50156d6d5ad4304c0,[Reseller Products - Chat (PRM)],SKU-00000090,2c92a0f949ac50670149c08059f36422,2017-08-15T17:02:02-07:00,Pre-PCR,Subscription-Zopim
2c92a0fb3b45a10e013b4927d5023745,2016-12-29T17:36:47-08:00,BIME - Professional Services,2017-08-12T00:00:00+00:00,2009-07-01T00:00:00+00:00,2c92a0fd5925bb0c01594d5f49527798,[BIME - Professional Services],SKU-00000103,2c92a0f949ac50670149c08059f36422,2017-08-15T17:02:03-07:00,Pre-PCR,Services
2c92a0fb3b45a10e013b4927d5023745,2017-02-13T06:56:07-08:00,Guide,2017-08-12T00:00:00+00:00,2010-06-01T00:00:00+00:00,2c92a0fd59d9d522015a37f945537a79,[Guide],SKU-00000104,2c92a0f949ac50670149c08059f36422,2017-08-15T17:02:03-07:00,Pre-PCR,Subscription
2c92a0fe5c494462015c587c9d427ec8,2017-08-07T08:31:11-07:00,"",3000-01-01T00:00:00+00:00,2000-01-01T00:00:00+00:00,2c92a0fd5d82a792015dbd5244c117dc,Support,SKU-00000117,2c92a0f949ac50670149c08059f36422,2019-05-17T11:32:37-07:00,Post-PCR,Subscription
2c92a0fe5c494462015c587c9d427ec8,2017-08-07T10:32:26-07:00,"",3000-01-01T00:00:00+00:00,2000-01-01T00:00:00+00:00,2c92a0fd5d82a792015dbdc1442c577c,Chat (Reseller),SKU-00000124,2c92a0f949ac50670149c08059f36422,2019-04-22T07:27:19-07:00,Post-PCR,Subscription
2c92a0fe5c494462015c587c9d427ec8,2017-08-07T10:52:41-07:00,"",3000-01-01T00:00:00+00:00,2000-01-01T00:00:00+00:00,2c92a0fd5d82a792015dbdd3ce657e6f,Support: Addons,SKU-00000128,2c92a0f949ac50670149c08059f36422,2020-10-08T10:22:26-07:00,Post-PCR,Addon
2c92a0f949ac50670149c08059f36422,2018-05-07T09:36:19-07:00,Connect,3000-01-01T00:00:00+00:00,2000-01-01T00:00:00+00:00,2c92a0fd633981bb01633b7602256c0e,Connect,SKU-A-00000005,2c92a0f949ac50670149c08059f36422,2019-08-01T13:08:06-07:00,Post-PCR,Subscription
2c92a0fb3b45a10e013b4927d5023745,2016-12-29T11:27:40-08:00,BIME - Base Products,2017-08-12T00:00:00+00:00,2009-07-01T00:00:00+00:00,2c92a0fe5925c68e01594c0d596e686f,[BIME - Base Products],SKU-00000101,2c92a0f949ac50670149c08059f36422,2017-08-15T17:02:03-07:00,Pre-PCR,Subscription-BIME
2c92a0fb3b45a10e013b4927d5023745,2017-02-13T07:23:53-08:00,Guide,2017-08-12T00:00:00+00:00,2010-06-01T00:00:00+00:00,2c92a0fe5a241e5a015a3812b0e511fa,[Guide - CC],SKU-00000106,2c92a0f949ac50670149c08059f36422,2017-08-15T17:02:03-07:00,Pre-PCR,Subscription
2c92a0fb3b45a10e013b4927d5023745,2017-02-21T06:51:51-08:00,Talk Partner Edition,2017-08-12T00:00:00+00:00,2010-06-01T00:00:00+00:00,2c92a0fe5a5ad344015a61283e61621f,[Talk Partner Edition - CC],SKU-00000107,2c92a0f949ac50670149c08059f36422,2017-08-15T17:02:03-07:00,Pre-PCR,Subscription
2c92a0fb3b45a10e013b4927d5023745,2017-02-21T07:01:57-08:00,Talk Partner Edition,2017-08-12T00:00:00+00:00,2010-06-01T00:00:00+00:00,2c92a0fe5a5ad344015a61317aab296a,[Talk Partner Edition],SKU-00000108,2c92a0f949ac50670149c08059f36422,2017-08-15T17:02:03-07:00,Pre-PCR,Subscription
2c92a0fb3b45a10e013b4927d5023745,2017-04-26T06:04:39-07:00,Reseller Products - Chat,2017-08-12T00:00:00+00:00,2003-01-01T00:00:00+00:00,2c92a0fe5ba4180c015baa5d174649fa,[Reseller Products - Chat],SKU-00000112,2c92a0f949ac50670149c08059f36422,2017-08-15T17:02:02-07:00,Pre-PCR,Subscription-Zopim
2c92a0fe5c494462015c587c9d427ec8,2017-08-07T10:24:49-07:00,"",3000-01-01T00:00:00+00:00,2000-01-01T00:00:00+00:00,2c92a0fe5d8298df015dbdba4b283051,Guide,SKU-00000120,2c92a0f949ac50670149c08059f36422,2019-09-17T14:41:23-07:00,Post-PCR,Subscription
2c92a0fe5c494462015c587c9d427ec8,2017-08-07T10:30:56-07:00,"",3000-01-01T00:00:00+00:00,2000-01-01T00:00:00+00:00,2c92a0fe5d8298df015dbdbfe7f777d5,Support (Reseller),SKU-00000123,2c92a0f949ac50670149c08059f36422,2018-08-02T07:49:18-07:00,Post-PCR,Subscription
2c92a0fe5c494462015c587c9d427ec8,2017-08-07T10:05:50-07:00,Training,3000-01-01T00:00:00+00:00,2000-01-01T00:00:00+00:00,2c92a0fe5d8298e1015dbda8eb2961b1,Training (Nonrecurring),SKU-00000118,2c92a0f949ac50670149c08059f36422,2020-10-01T14:50:02-07:00,Post-PCR,Services
2c92a0fe5c494462015c587c9d427ec8,2017-08-07T10:34:05-07:00,"",3000-01-01T00:00:00+00:00,2000-01-01T00:00:00+00:00,2c92a0fe5d8298e1015dbdc2c84f5357,Talk (Reseller),SKU-00000125,2c92a0f949ac50670149c08059f36422,2019-04-22T07:42:28-07:00,Post-PCR,Subscription
2c92a0fe5c494462015c587c9d427ec8,2017-08-07T10:43:37-07:00,Tiered Rate Plans,3000-01-01T00:00:00+00:00,2000-01-01T00:00:00+00:00,2c92a0fe5d8298e1015dbdcb85102ccc,Tiered,SKU-00000127,2c92a0f949ac50670149c08059f36422,2020-07-01T11:03:32-07:00,Post-PCR,Subscription
2c92a0f949ac50670149c08059f36422,2018-10-26T09:18:42-07:00,Explore,3000-01-01T00:00:00+00:00,2000-01-01T00:00:00+00:00,2c92a0fe66abfd120166b12bb05a2fe8,Explore,SKU-A-00000007,2c92a0f949ac50670149c08059f36422,2020-07-13T07:26:22-07:00,Post-PCR,Subscription
4028e4873772f1940137802e86967fe7,2016-04-04T10:49:55-07:00,"Relate Live: San Francisco - May 11, 2016 - May 12, 2016",2016-05-13T00:00:00+00:00,2016-04-01T00:00:00+00:00,2c92a0ff53d03f6d0153e26530620037,"[Relate Live: San Francisco - May 11, 2016 - May 12, 2016]",SKU-00000085,2c92a0f949ac50670149c08059f36422,2017-08-15T17:02:02-07:00,Pre-PCR,Other
4028e4873772f1940137802e86967fe7,2016-04-06T11:00:25-07:00,"Secondary Support Subscription for seasonal, temporary, etc.",2017-08-12T00:00:00+00:00,2000-01-01T00:00:00+00:00,2c92a0ff53d03f710153ecbb85fe759a,[Secondary Support Subscription],SKU-00000086,2c92a0f949ac50670149c08059f36422,2017-08-15T17:02:02-07:00,Pre-PCR,Subscription
2c92a0fb3b45a10e013b4927d5023745,2016-08-29T08:06:35-07:00,Reseller Products - Addons,2017-08-12T00:00:00+00:00,2015-07-01T00:00:00+00:00,2c92a0ff56c027640156d6d6795a4bfe,[Reseller Products - Addons],SKU-00000091,2c92a0f949ac50670149c08059f36422,2017-08-15T17:02:02-07:00,Pre-PCR,Addon
2c92a0fb3b45a10e013b4927d5023745,2016-11-14T12:14:54-08:00,BIME explore for self-service customers,2017-08-12T00:00:00+00:00,2001-04-01T00:00:00+00:00,2c92a0ff58483aee0158647a6a8d2baa,[Explore - CC],SKU-00000096,2c92a0f949ac50670149c08059f36422,2017-08-15T17:02:02-07:00,Pre-PCR,Subscription
2c92a0fb3b45a10e013b4927d5023745,2016-12-29T13:51:58-08:00,BIME - Addons,2017-08-12T00:00:00+00:00,2009-07-01T00:00:00+00:00,2c92a0ff5925c67301594c9176246c5a,[BIME - Addons],SKU-00000102,2c92a0f949ac50670149c08059f36422,2017-08-15T17:02:03-07:00,Pre-PCR,Subscription-BIME
2c92a0fb3b45a10e013b4927d5023745,2017-04-26T08:07:52-07:00,Reseller Products - Talk,2017-08-12T00:00:00+00:00,2015-11-19T00:00:00+00:00,2c92a0ff5ba41fe7015baacde8a45f9a,[Reseller Products - Talk],SKU-00000113,2c92a0f949ac50670149c08059f36422,2017-08-15T17:02:02-07:00,Pre-PCR,Subscription
2c92a0fb3b45a10e013b4927d5023745,2017-06-26T16:07:06-07:00,Answer Bot,2017-08-12T00:00:00+00:00,2010-06-01T00:00:00+00:00,2c92a0ff5ccf5955015ce6a892823282,[Answer Bot],SKU-00000115,2c92a0f949ac50670149c08059f36422,2017-08-15T17:02:02-07:00,Pre-PCR,Subscription
2c92a0fe5c494462015c587c9d427ec8,2017-08-07T10:20:48-07:00,"",3000-01-01T00:00:00+00:00,2000-01-01T00:00:00+00:00,2c92a0ff5d82a79f015dbdb69e2643cb,Talk,SKU-00000119,2c92a0f949ac50670149c08059f36422,2020-01-29T05:42:13-08:00,Post-PCR,Voice
2c92a0fe5c494462015c587c9d427ec8,2017-08-07T10:41:04-07:00,"",3000-01-01T00:00:00+00:00,2000-01-01T00:00:00+00:00,2c92a0ff5d82a79f015dbdc92cd155eb,Support: Addons (Reseller),SKU-00000126,2c92a0f949ac50670149c08059f36422,2020-10-08T10:30:05-07:00,Post-PCR,Addon
2c92a0fe5c494462015c587c9d427ec8,2017-08-07T10:54:04-07:00,Agent Months Rate Plans,3000-01-01T00:00:00+00:00,2000-01-01T00:00:00+00:00,2c92a0ff5d82a79f015dbdd5129e433f,Agent Months,SKU-00000129,2c92a0f949ac50670149c08059f36422,2020-09-23T13:20:59-07:00,Post-PCR,Subscription
2c92a0fe5c494462015c587c9d427ec8,2017-08-07T10:28:47-07:00,"",3000-01-01T00:00:00+00:00,2000-01-01T00:00:00+00:00,2c92a0ff5d82a7a2015dbdbdef7251ce,Self-Service Promotions,SKU-00000122,2c92a0f949ac50670149c08059f36422,2018-05-15T07:52:22-07:00,Post-PCR,Discount
2c92a0f949ac50670149c08059f36422,2017-08-15T17:46:01-07:00,Guide (Reseller),3000-01-01T00:00:00+00:00,2000-01-01T00:00:00+00:00,2c92a0ff5dd280d2015de8811b1b0c2f,Guide (Reseller),SKU-A-00000001,2c92a0f949ac50670149c08059f36422,2019-09-10T07:58:42-07:00,Post-PCR,Subscription
2c92a0f949ac50670149c08059f36422,2017-08-25T11:08:00-07:00,Zendesk Events,3000-01-01T00:00:00+00:00,2000-01-01T00:00:00+00:00,2c92a0ff5e12b64e015e1a944efd7e2c,Zendesk Events,SKU-A-00000002,2c92a0f949ac50670149c08059f36422,2019-05-07T08:58:09-07:00,Post-PCR,Other
2c92a0f949ac50670149c08059f36422,2018-04-26T11:56:04-07:00,Support Suite,3000-01-01T00:00:00+00:00,2000-01-01T00:00:00+00:00,2c92a0ff6300cc8d016303500cf07c9f,Support Suite,SKU-A-00000004,2c92a0f949ac50670149c08059f36422,2020-05-15T14:36:10-07:00,Post-PCR,Subscription
2c92a0f949ac50670149c08059f36422,2018-05-10T10:35:10-07:00,Support Suite (Reseller),3000-01-01T00:00:00+00:00,2000-01-01T00:00:00+00:00,2c92a0ff63391e3701634b1ef78573de,Support Suite (Reseller),SKU-A-00000006,2c92a0f949ac50670149c08059f36422,2020-09-11T07:27:29-07:00,Post-PCR,Subscription
2c92a0f949ac50670149c08059f36422,2018-10-26T11:06:17-07:00,Explore (Reseller),3000-01-01T00:00:00+00:00,2000-01-01T00:00:00+00:00,2c92a0ff668ad0b10166b18e313e207d,Explore (Reseller),SKU-A-00000008,2c92a0f949ac50670149c08059f36422,2020-07-13T07:24:18-07:00,Post-PCR,Subscription
2c92a0f949ac50670149c08059f36422,2020-01-13T10:20:48-08:00,"",3000-01-01T00:00:00+00:00,2000-01-01T00:00:00+00:00,2c92a0ff6f9de852016fa0230a8e2d28,Professional Services (Recurring),SKU-A-00000020,2c92a0f949ac50670149c08059f36422,2020-02-04T09:48:50-08:00,Post-PCR,Services
4028e48834f496860134f71792af5c76,2012-03-07T20:23:22-08:00,Support April 2010 Pricing Model,2017-08-12T00:00:00+00:00,2001-10-20T00:00:00+00:00,4028e48735ef9df70135f08c050e034e,[Support April 2010 Pricing Model],SKU-00000041,2c92a0f949ac50670149c08059f36422,2017-08-15T17:01:59-07:00,Pre-PCR,Subscription
4028e48834f496860134f71792af5c76,2012-03-07T20:24:05-08:00,Talk,2017-08-12T00:00:00+00:00,2001-12-01T00:00:00+00:00,4028e48735ef9df70135f08cad9f07be,[Talk],SKU-00000044,2c92a0f949ac50670149c08059f36422,2017-08-15T17:02:01-07:00,Pre-PCR,Voice
4028e48834f496860134f71792af5c76,2012-03-07T20:24:07-08:00,"",2017-08-12T00:00:00+00:00,2000-01-01T00:00:00+00:00,4028e48735ef9df70135f08cb55b07e2,[Discount],SKU-00000045,2c92a0f949ac50670149c08059f36422,2017-08-15T17:02:00-07:00,Pre-PCR,Discount
4028e48834f496860134f71792af5c76,2012-03-07T20:24:10-08:00,"Implementation, Migration & Customization Services",2050-01-02T00:00:00+00:00,2000-01-01T00:00:00+00:00,4028e48735ef9df70135f08cbfe2080f,[Professional Services],SKU-00000046,2c92a0f949ac50670149c08059f36422,2018-10-03T07:40:15-07:00,Pre-PCR,Services
4028e48834f496860134f71792af5c76,2012-03-07T20:24:11-08:00,Training,3000-12-31T00:00:00+00:00,2000-01-01T00:00:00+00:00,4028e48735ef9df70135f08cc52f0843,[Training],SKU-00000047,2c92a0f949ac50670149c08059f36422,2018-05-15T07:44:53-07:00,Pre-PCR,Services
4028e48834f496860134f71792af5c76,2012-03-07T20:24:48-08:00,Support Initial Pricing - CC,2017-08-12T00:00:00+00:00,2001-10-20T00:00:00+00:00,4028e48735ef9df70135f08d54680958,[Support Initial Pricing - CC],SKU-00000052,2c92a0f949ac50670149c08059f36422,2017-08-15T17:01:59-07:00,Pre-PCR,Subscription
4028e48834f496860134f71792af5c76,2012-03-07T20:23:07-08:00,Support Initial Pricing,2017-08-12T00:00:00+00:00,2001-10-20T00:00:00+00:00,4028e48835ef993a0135f08bcba325d5,[Support Initial Pricing],SKU-00000040,2c92a0f949ac50670149c08059f36422,2017-08-15T17:01:59-07:00,Pre-PCR,Subscription
4028e48834f496860134f71792af5c76,2012-03-07T20:23:37-08:00,Support New Forums Pricing Model,2017-08-12T00:00:00+00:00,2001-10-20T00:00:00+00:00,4028e48835ef993a0135f08c3efd2a97,[Support New Forums Pricing Model],SKU-00000042,2c92a0f949ac50670149c08059f36422,2017-08-15T17:01:59-07:00,Pre-PCR,Subscription
4028e48834f496860134f71792af5c76,2012-03-07T20:23:51-08:00,Support Enterprise Pricing Model - OLD,2017-08-12T00:00:00+00:00,2001-10-20T00:00:00+00:00,4028e48835ef993a0135f08c770f2b4e,[Support Enterprise Pricing Model - OLD],SKU-00000043,2c92a0f949ac50670149c08059f36422,2017-08-15T17:02:00-07:00,Pre-PCR,Subscription
4028e48834f496860134f71792af5c76,2012-03-07T20:24:20-08:00,Discount Support Trials,2012-04-01T00:00:00+00:00,2000-01-01T00:00:00+00:00,4028e48835ef993a0135f08ce8032cac,[Discount Support Trials],SKU-00000049,2c92a0f949ac50670149c08059f36422,2017-08-15T17:01:58-07:00,Pre-PCR,""
4028e48834f496860134f71792af5c76,2012-03-07T20:24:26-08:00,"This is the pricing pre-Sept 5, 2013",2017-08-12T00:00:00+00:00,2001-10-20T00:00:00+00:00,4028e48835ef993a0135f08cfd652d03,[Support Subscription Model],SKU-00000050,2c92a0f949ac50670149c08059f36422,2017-08-15T17:01:59-07:00,Pre-PCR,Subscription
4028e48834f496860134f71792af5c76,2012-03-07T20:24:38-08:00,Support UCSF Causeware Pricing Model - CC,2017-08-12T00:00:00+00:00,2001-10-20T00:00:00+00:00,4028e48835ef993a0135f08d2f232e3f,[Support UCSF Causeware Pricing Model - CC],SKU-00000051,2c92a0f949ac50670149c08059f36422,2017-08-15T17:01:59-07:00,Pre-PCR,Subscription
4028e48834f496860134f71792af5c76,2012-03-07T20:25:00-08:00,Support April 2010 Pricing Model - CC,2017-08-12T00:00:00+00:00,2001-10-20T00:00:00+00:00,4028e48835ef993a0135f08d821f3296,[Support April 2010 Pricing Model - CC],SKU-00000053,2c92a0f949ac50670149c08059f36422,2017-08-15T17:01:59-07:00,Pre-PCR,Subscription
4028e48834f496860134f71792af5c76,2012-03-07T20:25:11-08:00,Subscription,2017-08-12T00:00:00+00:00,2001-10-20T00:00:00+00:00,4028e48835ef993a0135f08dae1d3357,[DO NOT USE 1],SKU-00000054,2c92a0f949ac50670149c08059f36422,2017-08-15T17:01:59-07:00,Pre-PCR,Subscription
4028e48834f496860134f71792af5c76,2012-03-07T20:25:23-08:00,Support New Forums Pricing Model - CC,2017-08-12T00:00:00+00:00,2001-10-20T00:00:00+00:00,4028e48835ef993a0135f08ddc543438,[Support New Forums Pricing Model - CC],SKU-00000055,2c92a0f949ac50670149c08059f36422,2017-08-15T17:01:59-07:00,Pre-PCR,Subscription
