<?xml version="1.0" encoding="utf-8"?>
<!-- Generator: Adobe Illustrator 18.1.0, SVG Export Plug-In . SVG Version: 6.00 Build 0)  -->
<svg version="1.1" id="Layer_1" xmlns="http://www.w3.org/2000/svg" xmlns:xlink="http://www.w3.org/1999/xlink" x="0px" y="0px"
	 viewBox="0 0 167.5 166" enable-background="new 0 0 167.5 166" xml:space="preserve">
<g>
	<defs>
		<circle id="SVGID_1_" cx="83.7" cy="83.4" r="80"/>
	</defs>
	<clipPath id="SVGID_2_">
		<use xlink:href="#SVGID_1_"  overflow="visible"/>
	</clipPath>
	
		<use xlink:href="#SVGID_1_"  overflow="visible" fill="none" stroke="#CECECE" stroke-width="2.75" stroke-linecap="round" stroke-linejoin="round" stroke-miterlimit="10"/>
</g>
<line fill="none" stroke="#CECECE" stroke-width="2.75" stroke-linecap="round" stroke-linejoin="round" stroke-miterlimit="10" x1="72.8" y1="129.9" x2="72.8" y2="141.8"/>
<line fill="none" stroke="#CECECE" stroke-width="2.75" stroke-linecap="round" stroke-linejoin="round" stroke-miterlimit="10" x1="83.7" y1="126.2" x2="83.7" y2="145.6"/>
<line fill="none" stroke="#CECECE" stroke-width="2.75" stroke-linecap="round" stroke-linejoin="round" stroke-miterlimit="10" x1="94.5" y1="129.9" x2="94.5" y2="141.2"/>
<g>
	
		<path fill="none" stroke="#CECECE" stroke-width="2.75" stroke-linecap="round" stroke-linejoin="round" stroke-miterlimit="10" d="
		M73.4,118.1c0,0-19.5-59,10.3-85"/>
	
		<path fill="none" stroke="#CECECE" stroke-width="2.75" stroke-linecap="round" stroke-linejoin="round" stroke-miterlimit="10" d="
		M93.9,118.1c0,0,19.5-59-10.3-85"/>
	
		<path fill="none" stroke="#CECECE" stroke-width="2.75" stroke-linecap="round" stroke-linejoin="round" stroke-miterlimit="10" d="
		M114.4,122.7l-20.5-4.6H73.4l-20.4,4.6c0,0,4.2-20.2,14.9-28h31.7C110.2,102.5,114.4,122.7,114.4,122.7"/>
</g>
<line fill="none" stroke="#CECECE" stroke-width="2.75" stroke-linecap="round" stroke-linejoin="round" stroke-miterlimit="10" x1="74.8" y1="44.9" x2="92.5" y2="44.9"/>
<line fill="none" stroke="#CECECE" stroke-width="2.75" stroke-linecap="round" stroke-linejoin="round" stroke-miterlimit="10" x1="83.7" y1="22.2" x2="83.7" y2="33.1"/>
<path fill="none" stroke="#CECECE" stroke-width="2.75" stroke-linecap="round" stroke-linejoin="round" stroke-miterlimit="10" d="
	M83.7,82.3L76,74.6c-1.9-1.9-1.9-5.1,0-7c1.9-1.9,5.1-1.9,7,0l0.6,0.6l0.6-0.6c1.9-1.9,5.1-1.9,7,0c1.9,1.9,1.9,5.1,0,7L83.7,82.3z"
	/>
</svg>
