<?xml version="1.0" encoding="utf-8"?>
<!-- Generator: Adobe Illustrator 18.1.0, SVG Export Plug-In . SVG Version: 6.00 Build 0)  -->
<svg version="1.1" id="Layer_1" xmlns="http://www.w3.org/2000/svg" xmlns:xlink="http://www.w3.org/1999/xlink" x="0px" y="0px"
	 viewBox="0 0 166 165.5" enable-background="new 0 0 166 165.5" xml:space="preserve">
<g>
	<defs>
		<circle id="SVGID_1_" cx="82.7" cy="83.1" r="80"/>
	</defs>
	<clipPath id="SVGID_2_">
		<use xlink:href="#SVGID_1_"  overflow="visible"/>
	</clipPath>
	
		<use xlink:href="#SVGID_1_"  overflow="visible" fill="none" stroke="#CECECE" stroke-width="2.75" stroke-linecap="round" stroke-linejoin="round" stroke-miterlimit="10"/>
</g>
<path fill="none" stroke="#CECECE" stroke-width="2.75" stroke-linecap="round" stroke-linejoin="round" stroke-miterlimit="10" d="
	M52.8,95.4l22.1-22.1c5.6-5.6,5.6-14.7,0-20.3c-5.6-5.6-14.7-5.6-20.3,0l-1.8,1.8l-1.8-1.8c-5.6-5.6-14.7-5.6-20.3,0
	c-5.6,5.6-5.6,14.7,0,20.3l5,5l-4.8,12.7l11.7-5.9L52.8,95.4z"/>
<line fill="none" stroke="#CECECE" stroke-width="2.75" stroke-linecap="round" stroke-linejoin="round" stroke-miterlimit="10" x1="42.7" y1="62.1" x2="62.7" y2="62.1"/>
<line fill="none" stroke="#CECECE" stroke-width="2.75" stroke-linecap="round" stroke-linejoin="round" stroke-miterlimit="10" x1="42.7" y1="68.4" x2="62.7" y2="68.4"/>
<line fill="none" stroke="#CECECE" stroke-width="2.75" stroke-linecap="round" stroke-linejoin="round" stroke-miterlimit="10" x1="42.7" y1="74.8" x2="62.7" y2="74.8"/>
<path fill="none" stroke="#CECECE" stroke-width="2.75" stroke-linecap="round" stroke-linejoin="round" stroke-miterlimit="10" d="
	M104,73.2L89.3,58.5c-3.7-3.7-3.7-9.8,0-13.5c3.7-3.7,9.8-3.7,13.5,0l1.2,1.2l1.2-1.2c3.7-3.7,9.8-3.7,13.5,0
	c3.7,3.7,3.7,9.8,0,13.5l-3.3,3.3l3.2,8.5l-7.8-3.9L104,73.2z"/>
<line fill="none" stroke="#CECECE" stroke-width="2.1" stroke-linecap="round" stroke-linejoin="round" stroke-miterlimit="10" x1="110.8" y1="51" x2="97.4" y2="51"/>
<line fill="none" stroke="#CECECE" stroke-width="2.1" stroke-linecap="round" stroke-linejoin="round" stroke-miterlimit="10" x1="110.8" y1="55.3" x2="97.4" y2="55.3"/>
<line fill="none" stroke="#CECECE" stroke-width="2.1" stroke-linecap="round" stroke-linejoin="round" stroke-miterlimit="10" x1="110.8" y1="59.5" x2="97.4" y2="59.5"/>
<path fill="none" stroke="#CECECE" stroke-width="2.75" stroke-linecap="round" stroke-linejoin="round" stroke-miterlimit="10" d="
	M100.8,134.2l-25.4-25.4c-6.4-6.4-6.4-16.8,0-23.3c6.4-6.4,16.8-6.4,23.3,0l2.1,2.1l2.1-2.1c6.4-6.4,16.8-6.4,23.3,0
	c6.4,6.4,6.4,16.8,0,23.3l-5.8,5.8l5.5,14.6l-13.4-6.8L100.8,134.2z"/>
<line fill="none" stroke="#CECECE" stroke-width="2.75" stroke-linecap="round" stroke-linejoin="round" stroke-miterlimit="10" x1="112.4" y1="96.2" x2="89.4" y2="96.2"/>
<line fill="none" stroke="#CECECE" stroke-width="2.75" stroke-linecap="round" stroke-linejoin="round" stroke-miterlimit="10" x1="112.4" y1="103.5" x2="89.4" y2="103.5"/>
<line fill="none" stroke="#CECECE" stroke-width="2.75" stroke-linecap="round" stroke-linejoin="round" stroke-miterlimit="10" x1="112.4" y1="110.8" x2="89.4" y2="110.8"/>
</svg>
