{
  "type": "object",
  "required": ["after_cursor", "before_url", "before_url", "after_url", "trigger_revisions"],
  "properties": {
    "after_cursor": {"type": ["null", "string"]},
    "before_cursor": {"type": ["null", "string"]},
    "before_url": {"type": ["null", "string"]},
    "after_url": {"type": ["null", "string"]},
    "trigger_revisions": {
      "type": "array",
      "items": {
        "type": "object",
        "required": ["id", "author_id", "created_at", "snapshot", "diff"],
        "properties": {
          "id": {"type": "integer"},
          "author_id": {"type": "integer"},
          "snapshot": {"$ref": "#/definitions/snapshot"},
          "diff": {"$ref": "lib/zendesk/rules/json_schema/revision_diff.json"}
        }
      }
    }
  },
  "definitions":  {
    "snapshot": {
      "type": "object",
      "required": ["title", "active", "description","conditions", "actions"],
      "properties": {
        "title": {"type": "string"},
        "active": {"type": "boolean"},
        "description": {"type": ["null", "string"]},
        "conditions": {
          "type": "object",
          "required": ["all", "any"],
          "properties": {
            "any": {"$ref": "#/definitions/conditions"},
            "all": {"$ref": "#/definitions/conditions"}
          }
        },
        "actions": {
          "type": "array",
          "items": {"$ref": "#/definitions/action"}
        }
      }
    },
    "conditions": {
      "type": "array",
      "items": {"$ref": "#/definitions/condition"}
    },
    "condition": {
      "type": "object",
      "required": ["field", "operator", "value"],
      "properties": {
        "field": {"type": "string"},
        "operator": {"type": "string"}
      }
    },
    "action": {
      "type": "object",
      "required": ["field", "value"],
      "properties": {
        "field": {"type": "string"}
      }
    }
  }
}
